ej1/adder.vcd
$date
	Thu May 13 13:27:03 2021
$end
$version
	Icarus Verilog
$end
$timescale
	1ps
$end
$scope module top $end
$var wire 1 ! \$1 $end
$var wire 1 " \$11 $end
$var wire 1 # \$13 $end
$var wire 6 $ \$15 [5:0] $end
$var wire 1 % \$18 $end
$var wire 1 & \$20 $end
$var wire 1 ' \$22 $end
$var wire 1 ( \$24 $end
$var wire 1 ) \$26 $end
$var wire 1 * \$28 $end
$var wire 1 + \$3 $end
$var wire 1 , \$5 $end
$var wire 1 - \$7 $end
$var wire 1 . \$9 $end
$var wire 5 / a__data [4:0] $end
$var wire 1 0 a__valid $end
$var wire 1 1 b__valid $end
$var wire 1 2 clk $end
$var wire 1 3 r__ready $end
$var wire 1 4 rst $end
$var wire 6 5 \$16 [5:0] $end
$var reg 1 6 \$verilog_initial_trigger $end
$var reg 1 7 a__ready $end
$var reg 5 8 b__data [4:0] $end
$var reg 1 9 b__ready $end
$var reg 5 : r__data [4:0] $end
$var reg 5 ; \r__data$next [4:0] $end
$var reg 1 < r__valid $end
$var reg 1 = \r__valid$next $end
$upscope $end
$enddefinitions $end
#0
$dumpvars
0=
0<
b0 ;
b0 :
19
b1 8
17
06
bx 5
14
z3
12
z1
z0
bz /
x.
x-
x,
x+
1*
0)
1(
1'
0&
1%
bx $
x#
x"
0!
$end
#5000
02
#10000
b11011 ;
1=
1#
1-
1.
1+
1"
1,
04
10
b111011 $
b111011 5
b11001 /
11
b10 8
13
12
#15000
02
#20000
b11010 ;
b10101 /
b111010 $
b111010 5
b101 8
1=
1)
0(
1&
1!
0%
b11011 :
1<
12
#25000
02
#30000
b1 ;
b1110 /
b1 $
b1 5
b10011 8
b11010 :
12
#35000
02
#40000
b11101 ;
b111 /
b111101 $
b111101 5
b10110 8
b1 :
12
#45000
02
#50000
b11100 ;
b10011 /
b111100 $
b111100 5
b1001 8
b11101 :
12
#55000
02
#60000
b1100 ;
b10101 /
b101100 $
b101100 5
b10111 8
b11100 :
12
#65000
02
#70000
b10101 ;
b10100 /
b110101 $
b110101 5
b1 8
b1100 :
12
#75000
02
#80000
b11 ;
b11011 /
b11 $
b11 5
b1000 8
b10101 :
12
#85000
02
#90000
b1001 ;
b11101 /
b1001 $
b1001 5
b1100 8
b11 :
12
#95000
02
#100000
b100 ;
b10000 /
b100100 $
b100100 5
b10100 8
b1001 :
12
#105000
02
#110000
b1111 ;
b11100 /
b101111 $
b101111 5
b10011 8
b100 :
12
#115000
02
#120000
b11101 ;
b11111 /
b111101 $
b111101 5
b11110 8
b1111 :
12
#125000
02
#130000
b1000 ;
b10111 /
b101000 $
b101000 5
b10001 8
b11101 :
12
#135000
02
#140000
b11110 ;
b11011 /
b111110 $
b111110 5
b11 8
b1000 :
12
#145000
02
#150000
b10001 ;
b10 /
b10001 $
b10001 5
b1111 8
b11110 :
12
#155000
02
#160000
b11011 ;
b10100 /
b111011 $
b111011 5
b111 8
b10001 :
12
#165000
02
#170000
b1101 ;
b10111 /
b101101 $
b101101 5
b10110 8
b11011 :
12
#175000
02
#180000
b100 ;
b10100 /
b100100 $
b100100 5
b10000 8
b1101 :
12
#185000
02
#190000
b11111 ;
b11 /
b111111 $
b111111 5
b11100 8
b100 :
12
#195000
02
#200000
b11011 ;
b111 /
b111011 $
b111011 5
b10100 8
b11111 :
12
#205000
02
#210000
b111 ;
b1111 /
b111 $
b111 5
b11000 8
b11011 :
12
#215000
02
#220000
b10001 ;
b11 /
b10001 $
b10001 5
b1110 8
b111 :
12
#225000
02
#230000
b11101 ;
b11101 $
b11101 5
b1111 /
b10001 :
12
#235000
02
#240000
b10010 ;
b10010 $
b10010 5
b100 /
b11101 :
12
#245000
02
#250000
b11100 ;
b10000 /
b111100 $
b111100 5
b1100 8
b10010 :
12
#255000
02
#260000
b11011 ;
b1000 /
b111011 $
b111011 5
b10011 8
b11100 :
12
#265000
02
#270000
b101 ;
b11011 /
b101 $
b101 5
b1010 8
b11011 :
12
#275000
02
#280000
b11001 ;
b10000 /
b111001 $
b111001 5
b1001 8
b101 :
12
#285000
02
#290000
b10111 /
b111001 $
b111001 5
b10 8
b11001 :
12
#295000
02
#300000
b10111 ;
b10000 /
b110111 $
b110111 5
b111 8
12
#305000
02
#310000
b0 ;
b110 /
b0 $
b0 5
b11010 8
b10111 :
12
#315000
02
#320000
b1011 ;
b11110 /
b1011 $
b1011 5
b1101 8
b0 :
12
#325000
02
#330000
b111 ;
b100 /
b111 $
b111 5
b11 8
b1011 :
12
#335000
02
#340000
b10000 ;
b10111 /
b110000 $
b110000 5
b11001 8
b111 :
12
#345000
02
#350000
b10 ;
b11110 /
b10 $
b10 5
b100 8
b10000 :
12
#355000
02
#360000
b10110 ;
b10101 /
b110110 $
b110110 5
b1 8
b10 :
12
#365000
02
#370000
b1001 ;
b1110 /
b1001 $
b1001 5
b11011 8
b10110 :
12
#375000
02
#380000
b1010 ;
b100 /
b1010 $
b1010 5
b110 8
b1001 :
12
#385000
02
#390000
b11101 ;
b10101 /
b111101 $
b111101 5
b1000 8
b1010 :
12
#395000
02
#400000
b1110 ;
b10111 /
b101110 $
b101110 5
b10111 8
b11101 :
12
#405000
02
#410000
b11100 ;
b10010 /
b111100 $
b111100 5
b1010 8
b1110 :
12
#415000
02
#420000
b10000 ;
b1111 /
b10000 $
b10000 5
b1 8
b11100 :
12
#425000
02
#430000
b10011 ;
b110011 $
b110011 5
b10010 /
b10000 :
12
#435000
02
#440000
b11110 ;
b1110 /
b111110 $
b111110 5
b10000 8
b10011 :
12
#445000
02
#450000
b11110 :
12
#455000
02
#460000
b11010 ;
b1 /
b111010 $
b111010 5
b11001 8
12
#465000
02
#470000
b11011 ;
b10011 /
b111011 $
b111011 5
b1000 8
b11010 :
12
#475000
02
#480000
b11000 ;
b1001 /
b11000 $
b11000 5
b1111 8
b11011 :
12
#485000
02
#490000
b10110 /
b111000 $
b111000 5
b10 8
b11000 :
12
#495000
02
#500000
b11101 ;
b100 /
b111101 $
b111101 5
b11001 8
12
#505000
02
#510000
b11010 ;
b11011 /
b111010 $
b111010 5
b11111 8
b11101 :
12
#515000
02
#520000
b1111 ;
b1 /
b1111 $
b1111 5
b1110 8
b11010 :
12
#525000
02
#530000
b1011 ;
b1110 /
b1011 $
b1011 5
b11101 8
b1111 :
12
#535000
02
#540000
b11010 ;
b11111 /
b111010 $
b111010 5
b11011 8
b1011 :
12
#545000
02
#550000
b1110 ;
b1110 /
b1110 $
b1110 5
b0 8
b11010 :
12
#555000
02
#560000
b11010 ;
b111 /
b111010 $
b111010 5
b10011 8
b1110 :
12
#565000
02
#570000
b10010 ;
b10000 /
b110010 $
b110010 5
b10 8
b11010 :
12
#575000
02
#580000
b11100 ;
b1010 /
b111100 $
b111100 5
b10010 8
b10010 :
12
#585000
02
#590000
b11011 ;
b111011 $
b111011 5
b1001 /
b11100 :
12
#595000
02
#600000
b10010 ;
b10100 /
b110010 $
b110010 5
b11110 8
b11011 :
12
#605000
02
#610000
b10011 ;
b101 /
b10011 $
b10011 5
b1110 8
b10010 :
12
#615000
02
#620000
b1000 ;
b10 /
b1000 $
b1000 5
b110 8
b10011 :
12
#625000
02
#630000
b100 ;
b11111 /
b100 $
b100 5
b101 8
b1000 :
12
#635000
02
#640000
b11 ;
b1010 /
b11 $
b11 5
b11001 8
b100 :
12
#645000
02
#650000
b1011 ;
b1100 /
b1011 $
b1011 5
b11111 8
b11 :
12
#655000
02
#660000
b10100 ;
b11010 /
b110100 $
b110100 5
b11010 8
b1011 :
12
#665000
02
#670000
b0 ;
b11000 /
b0 $
b0 5
b1000 8
b10100 :
12
#675000
02
#680000
b11001 ;
b10010 /
b111001 $
b111001 5
b111 8
b0 :
12
#685000
02
#690000
b10010 ;
b110010 $
b110010 5
b0 8
b11001 :
12
#695000
02
#700000
b10100 ;
b1101 /
b10100 $
b10100 5
b111 8
b10010 :
12
#705000
02
#710000
b100 ;
b100 $
b100 5
b11101 /
b10100 :
12
#715000
02
#720000
b10110 ;
b11001 /
b110110 $
b110110 5
b11101 8
b100 :
12
#725000
02
#730000
b110 ;
b111 /
b110 $
b110 5
b11111 8
b10110 :
12
#735000
02
#740000
b10110 ;
b11101 /
b110110 $
b110110 5
b11001 8
b110 :
12
#745000
02
#750000
b111 ;
b11001 /
b111 $
b111 5
b1110 8
b10110 :
12
#755000
02
#760000
b1101 ;
b10110 /
b101101 $
b101101 5
b10111 8
b111 :
12
#765000
02
#770000
b1011 ;
b10011 /
b101011 $
b101011 5
b11000 8
b1101 :
12
#775000
02
#780000
b1100 ;
b11110 /
b1100 $
b1100 5
b1110 8
b1011 :
12
#785000
02
#790000
b1111 ;
b110 /
b1111 $
b1111 5
b1001 8
b1100 :
12
#795000
02
#800000
b10110 ;
b11 /
b110110 $
b110110 5
b10011 8
b1111 :
12
#805000
02
#810000
b1001 ;
b1000 /
b1001 $
b1001 5
b1 8
b10110 :
12
#815000
02
#820000
b101 ;
b110 /
b101 $
b101 5
b11111 8
b1001 :
12
#825000
02
#830000
b1001 ;
b10 /
b1001 $
b1001 5
b111 8
b101 :
12
#835000
02
#840000
b11100 ;
b1101 /
b11100 $
b11100 5
b1111 8
b1001 :
12
#845000
02
#850000
b10010 ;
b11001 /
b110010 $
b110010 5
b11001 8
b11100 :
12
#855000
02
#860000
b11011 ;
b1100 /
b11011 $
b11011 5
b1111 8
b10010 :
12
#865000
02
#870000
b10001 ;
b1101 /
b10001 $
b10001 5
b100 8
b11011 :
12
#875000
02
#880000
b1010 ;
b1010 $
b1010 5
b11101 8
b10001 :
12
#885000
02
#890000
b101 ;
b1111 /
b101 $
b101 5
b10110 8
b1010 :
12
#895000
02
#900000
b10000 ;
b1101 /
b10000 $
b10000 5
b11 8
b101 :
12
#905000
02
#910000
b1100 ;
b1100 /
b1100 $
b1100 5
b0 8
b10000 :
12
#915000
02
#920000
b10101 ;
b11111 /
b110101 $
b110101 5
b10110 8
b1100 :
12
#925000
02
#930000
b110 ;
b1 /
b110 $
b110 5
b101 8
b10101 :
12
#935000
02
#940000
b111 ;
b1100 /
b111 $
b111 5
b11011 8
b110 :
12
#945000
02
#950000
b11011 ;
b10 /
b111011 $
b111011 5
b11001 8
b111 :
12
#955000
02
#960000
b1001 /
b111011 $
b111011 5
b10010 8
b11011 :
12
#965000
02
#970000
b10011 ;
b101 /
b10011 $
b10011 5
b1110 8
12
#975000
02
#980000
b11001 ;
b10111 /
b111001 $
b111001 5
b10 8
b10011 :
12
#985000
02
#990000
b10001 ;
b11110 /
b110001 $
b110001 5
b10011 8
b11001 :
12
#995000
02
#1000000
b10101 ;
b101 /
b110101 $
b110101 5
b10000 8
b10001 :
12
#1005000
02
#1010000
0=
0#
0-
0.
0+
0"
0,
00
01
b10101 :
12
#1015000
02
#1020000
0)
1(
0&
0!
1%
0<
12
