ej1/adder.vcd
$date
	Sat May 15 19:27:29 2021
$end
$version
	Icarus Verilog
$end
$timescale
	1ps
$end
$scope module top $end
$var wire 1 ! \$1 $end
$var wire 1 " \$11 $end
$var wire 4 # \$13 [3:0] $end
$var wire 1 $ \$3 $end
$var wire 1 % \$5 $end
$var wire 1 & \$7 $end
$var wire 1 ' \$9 $end
$var wire 3 ( a__data [2:0] $end
$var wire 1 ) a__valid $end
$var wire 3 * b__data [2:0] $end
$var wire 1 + b__valid $end
$var wire 1 , clk $end
$var wire 1 - r__ready $end
$var wire 1 . rst $end
$var wire 4 / \$14 [3:0] $end
$var reg 1 0 \$verilog_initial_trigger $end
$var reg 1 1 a__ready $end
$var reg 1 2 b__ready $end
$var reg 3 3 r__data [2:0] $end
$var reg 3 4 \r__data$next [2:0] $end
$var reg 1 5 r__valid $end
$var reg 1 6 \r__valid$next $end
$upscope $end
$enddefinitions $end
#0
$dumpvars
06
05
b0 4
b0 3
12
11
00
bx /
1.
z-
1,
z+
bz *
z)
bz (
x'
x&
x%
x$
bx #
x"
x!
$end
#5000
0,
#10000
b1 4
16
1"
1%
1!
1&
1'
1$
0.
1)
b1 #
b1 /
b1 (
1+
b0 *
1-
1,
#15000
0,
#20000
b10 4
b11 (
b10 #
b10 /
b111 *
b1 3
15
1,
#25000
0,
#30000
b100 4
b0 (
b1100 #
b1100 /
b100 *
b10 3
1,
#35000
0,
#40000
b0 4
b111 (
b0 #
b0 /
b1 *
b100 3
1,
#45000
0,
#50000
b11 4
b101 (
b1011 #
b1011 /
b110 *
b0 3
1,
#55000
0,
#60000
b111 4
b110 (
b1111 #
b1111 /
b1 *
b11 3
1,
#65000
0,
#70000
b100 4
b10 (
b100 #
b100 /
b10 *
b111 3
1,
#75000
0,
#80000
b0 4
b111 (
b0 #
b0 /
b1 *
b100 3
1,
#85000
0,
#90000
b10 4
b11 (
b10 #
b10 /
b111 *
b0 3
1,
#95000
0,
#100000
b110 4
b10 (
b1110 #
b1110 /
b100 *
b10 3
1,
#105000
0,
#110000
b111 4
b100 (
b1111 #
b1111 /
b11 *
b110 3
1,
#115000
0,
#120000
b1 4
b101 (
b1001 #
b1001 /
b100 *
b111 3
1,
#125000
0,
#130000
b101 4
b1101 #
b1101 /
b1 (
b1 3
1,
#135000
0,
#140000
b11 4
b0 (
b11 #
b11 /
b11 *
b101 3
1,
#145000
0,
#150000
b1 4
b101 (
b1001 #
b1001 /
b100 *
b11 3
1,
#155000
0,
#160000
b100 4
b110 (
b1100 #
b1100 /
b110 *
b1 3
1,
#165000
0,
#170000
b10 4
b1 (
b10 #
b10 /
b1 *
b100 3
1,
#175000
0,
#180000
b11 4
b0 (
b11 #
b11 /
b11 *
b10 3
1,
#185000
0,
#190000
b10 4
b100 (
b1010 #
b1010 /
b110 *
b11 3
1,
#195000
0,
#200000
b1 4
b101 (
b1001 #
b1001 /
b100 *
b10 3
1,
#205000
0,
#210000
b110 (
b1 #
b1 /
b11 *
b1 3
1,
#215000
0,
#220000
b11 4
b11 #
b11 /
b0 (
1,
#225000
0,
#230000
b101 4
b101 (
b1101 #
b1101 /
b0 *
b11 3
1,
#235000
0,
#240000
b110 4
b1110 #
b1110 /
b110 (
b101 3
1,
#245000
0,
#250000
b111 (
b1110 #
b1110 /
b111 *
b110 3
1,
#255000
0,
#260000
b11 4
b11 (
b11 #
b11 /
b0 *
1,
#265000
0,
#270000
b100 4
b110 (
b1100 #
b1100 /
b110 *
b11 3
1,
#275000
0,
#280000
b11 (
b100 #
b100 /
b1 *
b100 3
1,
#285000
0,
#290000
b111 4
b111 (
b1111 #
b1111 /
b0 *
1,
#295000
0,
#300000
b1 4
b0 (
b1 #
b1 /
b1 *
b111 3
1,
#305000
0,
#310000
b0 4
b0 #
b0 /
b0 *
b1 3
1,
#315000
0,
#320000
b11 4
b11 #
b11 /
b11 *
b0 3
1,
#325000
0,
#330000
b10 4
b10 #
b10 /
b10 *
b11 3
1,
#335000
0,
#340000
b11 (
b10 #
b10 /
b111 *
b10 3
1,
#345000
0,
#350000
b11 4
b1011 #
b1011 /
b100 (
1,
#355000
0,
#360000
b101 4
b10 (
b101 #
b101 /
b11 *
b11 3
1,
#365000
0,
#370000
b100 4
b110 (
b1100 #
b1100 /
b110 *
b101 3
1,
#375000
0,
#380000
b111 4
b11 (
b1111 #
b1111 /
b100 *
b100 3
1,
#385000
0,
#390000
b0 4
b0 (
b0 #
b0 /
b0 *
b111 3
1,
#395000
0,
#400000
b10 4
b10 #
b10 /
b10 *
b0 3
1,
#405000
0,
#410000
b101 4
b101 #
b101 /
b11 (
b10 3
1,
#415000
0,
#420000
b100 4
b100 #
b100 /
b1 *
b101 3
1,
#425000
0,
#430000
b0 4
b0 #
b0 /
b101 *
b100 3
1,
#435000
0,
#440000
b10 4
b111 (
b10 #
b10 /
b11 *
b0 3
1,
#445000
0,
#450000
b100 4
b1100 #
b1100 /
b101 *
b10 3
1,
#455000
0,
#460000
b11 (
b100 #
b100 /
b1 *
b100 3
1,
#465000
0,
#470000
b10 4
b110 (
b1010 #
b1010 /
b100 *
1,
#475000
0,
#480000
b100 4
b111 (
b1100 #
b1100 /
b101 *
b10 3
1,
#485000
0,
#490000
b11 4
b1 (
b11 #
b11 /
b10 *
b100 3
1,
#495000
0,
#500000
b111 4
b110 (
b1111 #
b1111 /
b1 *
b11 3
1,
#505000
0,
#510000
b110 4
b11 (
b110 #
b110 /
b11 *
b111 3
1,
#515000
0,
#520000
b1 4
b10 (
b1 #
b1 /
b111 *
b110 3
1,
#525000
0,
#530000
b110 4
b0 (
b1110 #
b1110 /
b110 *
b1 3
1,
#535000
0,
#540000
b100 (
b1110 #
b1110 /
b10 *
b110 3
1,
#545000
0,
#550000
b111 4
b111 (
b1111 #
b1111 /
b0 *
1,
#555000
0,
#560000
b101 4
b100 (
b1101 #
b1101 /
b1 *
b111 3
1,
#565000
0,
#570000
b111 4
b0 (
b1111 #
b1111 /
b111 *
b101 3
1,
#575000
0,
#580000
b110 4
b100 (
b1110 #
b1110 /
b10 *
b111 3
1,
#585000
0,
#590000
b1 4
b1 (
b1 #
b1 /
b0 *
b110 3
1,
#595000
0,
#600000
b101 (
b1001 #
b1001 /
b100 *
b1 3
1,
#605000
0,
#610000
b100 (
b1001 #
b1001 /
b101 *
1,
#615000
0,
#620000
b101 4
b1 (
b1101 #
b1101 /
b100 *
1,
#625000
0,
#630000
b110 4
b11 (
b110 #
b110 /
b11 *
b101 3
1,
#635000
0,
#640000
b100 4
b100 #
b100 /
b1 *
b110 3
1,
#645000
0,
#650000
b11 4
b101 (
b1011 #
b1011 /
b110 *
b100 3
1,
#655000
0,
#660000
b110 4
b11 (
b110 #
b110 /
b11 *
b11 3
1,
#665000
0,
#670000
b111 4
b0 (
b1111 #
b1111 /
b111 *
b110 3
1,
#675000
0,
#680000
b10 4
b10 #
b10 /
b11 (
b111 3
1,
#685000
0,
#690000
b1 4
b1 (
b1 #
b1 /
b0 *
b10 3
1,
#695000
0,
#700000
b111 4
b11 (
b1111 #
b1111 /
b100 *
b1 3
1,
#705000
0,
#710000
b100 4
b101 (
b1100 #
b1100 /
b111 *
b111 3
1,
#715000
0,
#720000
b111 (
b1100 #
b1100 /
b101 *
b100 3
1,
#725000
0,
#730000
b1 4
b101 (
b1001 #
b1001 /
b100 *
1,
#735000
0,
#740000
b11 4
b110 (
b1011 #
b1011 /
b101 *
b1 3
1,
#745000
0,
#750000
b110 4
b0 (
b1110 #
b1110 /
b110 *
b11 3
1,
#755000
0,
#760000
b11 4
b1011 #
b1011 /
b101 (
b110 3
1,
#765000
0,
#770000
b100 4
b100 (
b1100 #
b1100 /
b0 *
b11 3
1,
#775000
0,
#780000
b111 (
b1100 #
b1100 /
b101 *
b100 3
1,
#785000
0,
#790000
b101 4
b100 (
b1101 #
b1101 /
b1 *
1,
#795000
0,
#800000
b110 (
b1101 #
b1101 /
b111 *
b101 3
1,
#805000
0,
#810000
b10 4
b1 (
b10 #
b10 /
b1 *
1,
#815000
0,
#820000
b110 4
b0 (
b1110 #
b1110 /
b110 *
b10 3
1,
#825000
0,
#830000
b11 (
b110 #
b110 /
b11 *
b110 3
1,
#835000
0,
#840000
b101 4
b101 (
b1101 #
b1101 /
b0 *
1,
#845000
0,
#850000
b111 4
b1111 #
b1111 /
b10 *
b101 3
1,
#855000
0,
#860000
b10 4
b11 (
b10 #
b10 /
b111 *
b111 3
1,
#865000
0,
#870000
b110 4
b10 (
b1110 #
b1110 /
b100 *
b10 3
1,
#875000
0,
#880000
b11 4
b11 #
b11 /
b1 *
b110 3
1,
#885000
0,
#890000
b0 4
b101 (
b0 #
b0 /
b11 *
b11 3
1,
#895000
0,
#900000
b100 4
b100 (
b1100 #
b1100 /
b0 *
b0 3
1,
#905000
0,
#910000
b10 4
b111 (
b10 #
b10 /
b11 *
b100 3
1,
#915000
0,
#920000
b101 4
b0 (
b1101 #
b1101 /
b101 *
b10 3
1,
#925000
0,
#930000
b0 4
b101 (
b0 #
b0 /
b11 *
b101 3
1,
#935000
0,
#940000
b110 4
b100 (
b1110 #
b1110 /
b10 *
b0 3
1,
#945000
0,
#950000
b100 4
b1100 #
b1100 /
b0 *
b110 3
1,
#955000
0,
#960000
b110 (
b1100 #
b1100 /
b110 *
b100 3
1,
#965000
0,
#970000
b111 4
b100 (
b1111 #
b1111 /
b11 *
1,
#975000
0,
#980000
b11 4
b111 (
b1011 #
b1011 /
b100 *
b111 3
1,
#985000
0,
#990000
b111 4
b1111 #
b1111 /
b11 (
b11 3
1,
#995000
0,
#1000000
b1 4
b10 (
b1 #
b1 /
b111 *
b111 3
1,
#1005000
0,
#1010000
b0 4
06
0"
0%
0!
0&
0'
0$
0)
0+
b1 3
1,
#1015000
0,
#1020000
b0 3
05
1,
#1020001
1.
#1025001
0,
#1030001
1,
#1035001
0,
#1040001
b111 4
16
1"
1%
1!
1&
1'
1$
0.
1)
b1111 #
b1111 /
b0 (
1+
1,
#1045001
0,
#1050001
b100 (
b1111 #
b1111 /
b11 *
15
b111 3
1,
#1055001
0,
#1060001
b101 4
b1 (
b1101 #
b1101 /
b100 *
1,
#1065001
0,
#1070001
b111 4
b1111 #
b1111 /
b110 *
b101 3
1,
#1075001
0,
#1080001
b11 4
b11 #
b11 /
b10 *
b111 3
1,
#1085001
0,
#1090001
b100 (
b1011 #
b1011 /
b111 *
b11 3
1,
#1095001
0,
#1100001
b0 4
b110 (
b0 #
b0 /
b10 *
1,
#1105001
0,
#1110001
b101 4
b101 (
b1101 #
b1101 /
b0 *
b0 3
1,
#1115001
0,
#1120001
b110 4
b1 (
b1110 #
b1110 /
b101 *
b101 3
1,
#1125001
0,
#1130001
b10 4
b100 (
b1010 #
b1010 /
b110 *
b110 3
1,
#1135001
0,
#1140001
b101 4
b110 (
b1101 #
b1101 /
b111 *
b10 3
1,
#1145001
0,
#1150001
b10 4
b0 (
b10 #
b10 /
b10 *
b101 3
1,
#1155001
0,
#1160001
b100 4
b101 (
b1100 #
b1100 /
b111 *
b10 3
1,
#1165001
0,
#1170001
b10 4
b1 (
b10 #
b10 /
b1 *
b100 3
1,
#1175001
0,
#1180001
b110 4
b100 (
b1110 #
b1110 /
b10 *
b10 3
1,
#1185001
0,
#1190001
b100 4
b101 (
b1100 #
b1100 /
b111 *
b110 3
1,
#1195001
0,
#1200001
b101 4
b10 (
b101 #
b101 /
b11 *
b100 3
1,
#1205001
0,
#1210001
b110 4
b0 (
b1110 #
b1110 /
b110 *
b101 3
1,
#1215001
0,
#1220001
b101 4
b101 (
b1101 #
b1101 /
b0 *
b110 3
1,
#1225001
0,
#1230001
b0 (
b1101 #
b1101 /
b101 *
b101 3
1,
#1235001
0,
#1240001
b1 (
b1101 #
b1101 /
b100 *
1,
#1245001
0,
#1250001
b11 4
b10 (
b11 #
b11 /
b1 *
1,
#1255001
0,
#1260001
b0 4
b110 (
b0 #
b0 /
b10 *
b11 3
1,
#1265001
0,
#1270001
b101 4
b1101 #
b1101 /
b111 *
b0 3
1,
#1275001
0,
#1280001
b110 4
b101 (
b1110 #
b1110 /
b1 *
b101 3
1,
#1285001
0,
#1290001
b111 4
b1111 #
b1111 /
b10 *
b110 3
1,
#1295001
0,
#1300001
b101 4
b1 (
b1101 #
b1101 /
b100 *
b111 3
1,
#1305001
0,
#1310001
b0 4
b1000 #
b1000 /
b100 (
b101 3
1,
#1315001
0,
#1320001
b10 4
b1010 #
b1010 /
b110 *
b0 3
1,
#1325001
0,
#1330001
b0 (
b10 #
b10 /
b10 *
b10 3
1,
#1335001
0,
#1340001
b1 4
b101 (
b1001 #
b1001 /
b100 *
1,
#1345001
0,
#1350001
b11 4
b1011 #
b1011 /
b110 *
b1 3
1,
#1355001
0,
#1360001
b101 4
b10 (
b101 #
b101 /
b11 *
b11 3
1,
#1365001
0,
#1370001
b10 4
b101 (
b1010 #
b1010 /
b101 *
b101 3
1,
#1375001
0,
#1380001
b0 4
b0 (
b0 #
b0 /
b0 *
b10 3
1,
#1385001
0,
#1390001
b11 4
b110 (
b1011 #
b1011 /
b101 *
b0 3
1,
#1395001
0,
#1400001
b111 4
b100 (
b1111 #
b1111 /
b11 *
b11 3
1,
#1405001
0,
#1410001
b1 (
b1111 #
b1111 /
b110 *
b111 3
1,
#1415001
0,
#1420001
b11 (
b1111 #
b1111 /
b100 *
1,
#1425001
0,
#1430001
b101 4
b1101 #
b1101 /
b1 (
1,
#1435001
0,
#1440001
b11 (
b101 #
b101 /
b10 *
b101 3
1,
#1445001
0,
#1450001
b111 4
b1 (
b1111 #
b1111 /
b110 *
1,
#1455001
0,
#1460001
b1 4
b0 (
b1 #
b1 /
b1 *
b111 3
1,
#1465001
0,
#1470001
b100 4
b10 (
b100 #
b100 /
b10 *
b1 3
1,
#1475001
0,
#1480001
b110 4
b11 (
b110 #
b110 /
b11 *
b100 3
1,
#1485001
0,
#1490001
b0 4
b0 #
b0 /
b101 *
b110 3
1,
#1495001
0,
#1500001
b1 4
b1 #
b1 /
b110 *
b0 3
1,
#1505001
0,
#1510001
b111 (
b1 #
b1 /
b10 *
b1 3
1,
#1515001
0,
#1520001
b101 4
b110 (
b1101 #
b1101 /
b111 *
1,
#1525001
0,
#1530001
b0 4
b0 #
b0 /
b1 (
b101 3
1,
#1535001
0,
#1540001
b110 4
b101 (
b1110 #
b1110 /
b1 *
b0 3
1,
#1545001
0,
#1550001
b101 4
b1 (
b1101 #
b1101 /
b100 *
b110 3
1,
#1555001
0,
#1560001
b0 4
b1000 #
b1000 /
b100 (
b101 3
1,
#1565001
0,
#1570001
b100 4
b1 (
b100 #
b100 /
b11 *
b0 3
1,
#1575001
0,
#1580001
b111 4
b10 (
b1111 #
b1111 /
b101 *
b100 3
1,
#1585001
0,
#1590001
b11 4
b1 (
b11 #
b11 /
b10 *
b111 3
1,
#1595001
0,
#1600001
b10 (
b11 #
b11 /
b1 *
b11 3
1,
#1605001
0,
#1610001
b101 4
b0 (
b1101 #
b1101 /
b101 *
1,
#1615001
0,
#1620001
b11 4
b11 #
b11 /
b11 *
b101 3
1,
#1625001
0,
#1630001
b1 4
b10 (
b1 #
b1 /
b111 *
b11 3
1,
#1635001
0,
#1640001
b110 4
b100 (
b1110 #
b1110 /
b10 *
b1 3
1,
#1645001
0,
#1650001
b100 4
b11 (
b100 #
b100 /
b1 *
b110 3
1,
#1655001
0,
#1660001
b111 4
b0 (
b1111 #
b1111 /
b111 *
b100 3
1,
#1665001
0,
#1670001
b11 4
b1011 #
b1011 /
b100 (
b111 3
1,
#1675001
0,
#1680001
b101 4
b0 (
b1101 #
b1101 /
b101 *
b11 3
1,
#1685001
0,
#1690001
b100 4
b10 (
b100 #
b100 /
b10 *
b101 3
1,
#1695001
0,
#1700001
b0 4
b0 #
b0 /
b110 (
b100 3
1,
#1705001
0,
#1710001
b101 4
b0 (
b1101 #
b1101 /
b101 *
b0 3
1,
#1715001
0,
#1720001
b101 3
1,
#1725001
0,
#1730001
b110 4
b111 (
b1110 #
b1110 /
b111 *
1,
#1735001
0,
#1740001
b0 4
b0 #
b0 /
b1 *
b110 3
1,
#1745001
0,
#1750001
b100 4
b110 (
b1100 #
b1100 /
b110 *
b0 3
1,
#1755001
0,
#1760001
b10 4
b11 (
b10 #
b10 /
b111 *
b100 3
1,
#1765001
0,
#1770001
b11 4
b110 (
b1011 #
b1011 /
b101 *
b10 3
1,
#1775001
0,
#1780001
b101 4
b1101 #
b1101 /
b111 *
b11 3
1,
#1785001
0,
#1790001
b110 4
b101 (
b1110 #
b1110 /
b1 *
b101 3
1,
#1795001
0,
#1800001
b111 4
b100 (
b1111 #
b1111 /
b11 *
b110 3
1,
#1805001
0,
#1810001
b0 4
b110 (
b0 #
b0 /
b10 *
b111 3
1,
#1815001
0,
#1820001
b110 4
b0 (
b1110 #
b1110 /
b110 *
b0 3
1,
#1825001
0,
#1830001
b0 4
b101 (
b0 #
b0 /
b11 *
b110 3
1,
#1835001
0,
#1840001
b1 4
b1001 #
b1001 /
b100 *
b0 3
1,
#1845001
0,
#1850001
b11 4
b10 (
b11 #
b11 /
b1 *
b1 3
1,
#1855001
0,
#1860001
b111 4
b101 (
b1111 #
b1111 /
b10 *
b11 3
1,
#1865001
0,
#1870001
b10 (
b1111 #
b1111 /
b101 *
b111 3
1,
#1875001
0,
#1880001
b110 4
b1110 #
b1110 /
b1 (
1,
#1885001
0,
#1890001
b1 4
b1001 #
b1001 /
b100 (
b110 3
1,
#1895001
0,
#1900001
b110 4
b1110 #
b1110 /
b10 *
b1 3
1,
#1905001
0,
#1910001
b11 4
b11 #
b11 /
b1 (
b110 3
1,
#1915001
0,
#1920001
b0 4
b0 #
b0 /
b110 (
b11 3
1,
#1925001
0,
#1930001
b101 4
b10 (
b101 #
b101 /
b11 *
b0 3
1,
#1935001
0,
#1940001
b0 4
b110 (
b0 #
b0 /
b10 *
b101 3
1,
#1945001
0,
#1950001
b110 4
b1110 #
b1110 /
b100 (
b0 3
1,
#1955001
0,
#1960001
b1 4
b110 (
b1 #
b1 /
b11 *
b110 3
1,
#1965001
0,
#1970001
b100 (
b1001 #
b1001 /
b101 *
b1 3
1,
#1975001
0,
#1980001
b100 4
b1100 #
b1100 /
b0 *
1,
#1985001
0,
#1990001
b1 4
b10 (
b1 #
b1 /
b111 *
b100 3
1,
#1995001
0,
#2000001
b111 4
b101 (
b1111 #
b1111 /
b10 *
b1 3
1,
#2005001
0,
#2010001
b1 4
b11 (
b1 #
b1 /
b110 *
b111 3
1,
#2015001
0,
#2020001
b111 4
b0 (
b1111 #
b1111 /
b111 *
b1 3
1,
#2025001
0,
#2030001
b100 4
b1100 #
b1100 /
b101 (
b111 3
1,
#2035001
0,
#2040001
b0 4
06
0"
0%
0!
0&
0'
0$
0)
0+
b100 3
1,
#2045001
0,
#2050001
16
1"
1%
1!
1&
1'
1$
1)
b0 (
1+
b0 #
b0 /
b0 *
05
b0 3
1,
#2055001
0,
#2060001
b1 4
b1 #
b1 /
b1 *
15
1,
#2065001
0,
#2070001
b10 4
b10 #
b10 /
b10 *
b1 3
1,
#2075001
0,
#2080001
b11 4
b11 #
b11 /
b11 *
b10 3
1,
#2085001
0,
#2090001
b100 4
b1100 #
b1100 /
b100 *
b11 3
1,
#2095001
0,
#2100001
b101 4
b1101 #
b1101 /
b101 *
b100 3
1,
#2105001
0,
#2110001
b110 4
b1110 #
b1110 /
b110 *
b101 3
1,
#2115001
0,
#2120001
b111 4
b1111 #
b1111 /
b111 *
b110 3
1,
#2125001
0,
#2130001
b1 4
b1 (
b1 #
b1 /
b0 *
b111 3
1,
#2135001
0,
#2140001
b10 4
b10 #
b10 /
b1 *
b1 3
1,
#2145001
0,
#2150001
b11 4
b11 #
b11 /
b10 *
b10 3
1,
#2155001
0,
#2160001
b100 4
b100 #
b100 /
b11 *
b11 3
1,
#2165001
0,
#2170001
b101 4
b1101 #
b1101 /
b100 *
b100 3
1,
#2175001
0,
#2180001
b110 4
b1110 #
b1110 /
b101 *
b101 3
1,
#2185001
0,
#2190001
b111 4
b1111 #
b1111 /
b110 *
b110 3
1,
#2195001
0,
#2200001
b0 4
b0 #
b0 /
b111 *
b111 3
1,
#2205001
0,
#2210001
b10 4
b10 (
b10 #
b10 /
b0 *
b0 3
1,
#2215001
0,
#2220001
b11 4
b11 #
b11 /
b1 *
b10 3
1,
#2225001
0,
#2230001
b100 4
b100 #
b100 /
b10 *
b11 3
1,
#2235001
0,
#2240001
b101 4
b101 #
b101 /
b11 *
b100 3
1,
#2245001
0,
#2250001
b110 4
b1110 #
b1110 /
b100 *
b101 3
1,
#2255001
0,
#2260001
b111 4
b1111 #
b1111 /
b101 *
b110 3
1,
#2265001
0,
#2270001
b0 4
b0 #
b0 /
b110 *
b111 3
1,
#2275001
0,
#2280001
b1 4
b1 #
b1 /
b111 *
b0 3
1,
#2285001
0,
#2290001
b11 4
b11 (
b11 #
b11 /
b0 *
b1 3
1,
#2295001
0,
#2300001
b100 4
b100 #
b100 /
b1 *
b11 3
1,
#2305001
0,
#2310001
b101 4
b101 #
b101 /
b10 *
b100 3
1,
#2315001
0,
#2320001
b110 4
b110 #
b110 /
b11 *
b101 3
1,
#2325001
0,
#2330001
b111 4
b1111 #
b1111 /
b100 *
b110 3
1,
#2335001
0,
#2340001
b0 4
b0 #
b0 /
b101 *
b111 3
1,
#2345001
0,
#2350001
b1 4
b1 #
b1 /
b110 *
b0 3
1,
#2355001
0,
#2360001
b10 4
b10 #
b10 /
b111 *
b1 3
1,
#2365001
0,
#2370001
b100 4
b100 (
b1100 #
b1100 /
b0 *
b10 3
1,
#2375001
0,
#2380001
b101 4
b1101 #
b1101 /
b1 *
b100 3
1,
#2385001
0,
#2390001
b110 4
b1110 #
b1110 /
b10 *
b101 3
1,
#2395001
0,
#2400001
b111 4
b1111 #
b1111 /
b11 *
b110 3
1,
#2405001
0,
#2410001
b0 4
b1000 #
b1000 /
b100 *
b111 3
1,
#2415001
0,
#2420001
b1 4
b1001 #
b1001 /
b101 *
b0 3
1,
#2425001
0,
#2430001
b10 4
b1010 #
b1010 /
b110 *
b1 3
1,
#2435001
0,
#2440001
b11 4
b1011 #
b1011 /
b111 *
b10 3
1,
#2445001
0,
#2450001
b101 4
b101 (
b1101 #
b1101 /
b0 *
b11 3
1,
#2455001
0,
#2460001
b110 4
b1110 #
b1110 /
b1 *
b101 3
1,
#2465001
0,
#2470001
b111 4
b1111 #
b1111 /
b10 *
b110 3
1,
#2475001
0,
#2480001
b0 4
b0 #
b0 /
b11 *
b111 3
1,
#2485001
0,
#2490001
b1 4
b1001 #
b1001 /
b100 *
b0 3
1,
#2495001
0,
#2500001
b10 4
b1010 #
b1010 /
b101 *
b1 3
1,
#2505001
0,
#2510001
b11 4
b1011 #
b1011 /
b110 *
b10 3
1,
#2515001
0,
#2520001
b100 4
b1100 #
b1100 /
b111 *
b11 3
1,
#2525001
0,
#2530001
b110 4
b110 (
b1110 #
b1110 /
b0 *
b100 3
1,
#2535001
0,
#2540001
b111 4
b1111 #
b1111 /
b1 *
b110 3
1,
#2545001
0,
#2550001
b0 4
b0 #
b0 /
b10 *
b111 3
1,
#2555001
0,
#2560001
b1 4
b1 #
b1 /
b11 *
b0 3
1,
#2565001
0,
#2570001
b10 4
b1010 #
b1010 /
b100 *
b1 3
1,
#2575001
0,
#2580001
b11 4
b1011 #
b1011 /
b101 *
b10 3
1,
#2585001
0,
#2590001
b100 4
b1100 #
b1100 /
b110 *
b11 3
1,
#2595001
0,
#2600001
b101 4
b1101 #
b1101 /
b111 *
b100 3
1,
#2605001
0,
#2610001
b111 4
b111 (
b1111 #
b1111 /
b0 *
b101 3
1,
#2615001
0,
#2620001
b0 4
b0 #
b0 /
b1 *
b111 3
1,
#2625001
0,
#2630001
b1 4
b1 #
b1 /
b10 *
b0 3
1,
#2635001
0,
#2640001
b10 4
b10 #
b10 /
b11 *
b1 3
1,
#2645001
0,
#2650001
b11 4
b1011 #
b1011 /
b100 *
b10 3
1,
#2655001
0,
#2660001
b100 4
b1100 #
b1100 /
b101 *
b11 3
1,
#2665001
0,
#2670001
b101 4
b1101 #
b1101 /
b110 *
b100 3
1,
#2675001
0,
#2680001
b110 4
b1110 #
b1110 /
b111 *
b101 3
1,
#2685001
0,
#2690001
b0 4
06
0"
0%
0!
0&
0'
0$
0)
0+
b110 3
1,
#2695001
0,
#2700001
b0 3
05
1,
