ej1/adder.vcd
$date
	Thu May 13 14:58:19 2021
$end
$version
	Icarus Verilog
$end
$timescale
	1ps
$end
$scope module top $end
$var wire 1 ! \$1 $end
$var wire 1 " \$11 $end
$var wire 1 # \$13 $end
$var wire 5 $ \$15 [4:0] $end
$var wire 1 % \$18 $end
$var wire 1 & \$20 $end
$var wire 1 ' \$22 $end
$var wire 1 ( \$24 $end
$var wire 1 ) \$26 $end
$var wire 1 * \$28 $end
$var wire 1 + \$3 $end
$var wire 1 , \$5 $end
$var wire 1 - \$7 $end
$var wire 1 . \$9 $end
$var wire 1 / a__valid $end
$var wire 1 0 b__valid $end
$var wire 1 1 clk $end
$var wire 1 2 r__ready $end
$var wire 1 3 rst $end
$var wire 5 4 \$16 [4:0] $end
$var reg 1 5 \$verilog_initial_trigger $end
$var reg 4 6 a__data [3:0] $end
$var reg 1 7 a__ready $end
$var reg 4 8 b__data [3:0] $end
$var reg 1 9 b__ready $end
$var reg 4 : r__data [3:0] $end
$var reg 4 ; \r__data$next [3:0] $end
$var reg 1 < r__valid $end
$var reg 1 = \r__valid$next $end
$upscope $end
$enddefinitions $end
#0
$dumpvars
0=
0<
b0 ;
b0 :
19
b0 8
17
b0 6
05
b0 4
13
z2
11
z0
z/
x.
x-
x,
x+
1*
0)
1(
1'
0&
1%
b0 $
x#
x"
0!
$end
#5000
01
#10000
b101 ;
1=
1#
1-
1.
1+
1"
1,
03
1/
b1011 6
10
b10101 $
b10101 4
b1010 8
12
11
#15000
01
#20000
b10 ;
b110 6
b10 $
b10 4
b1100 8
1=
1)
0(
1&
1!
0%
b101 :
1<
11
#25000
01
#30000
b1101 ;
b1011 6
b11101 $
b11101 4
b10 8
b10 :
11
#35000
01
#40000
b0 ;
b10 6
b0 $
b0 4
b1110 8
b1101 :
11
#45000
01
#50000
b11 ;
b11 $
b11 4
b1 8
b0 :
11
#55000
01
#60000
b1110 ;
b11 6
b11110 $
b11110 4
b1011 8
b11 :
11
#65000
01
#70000
b110 ;
b101 6
b110 $
b110 4
b1 8
b1110 :
11
#75000
01
#80000
b1000 ;
b1101 6
b11000 $
b11000 4
b1011 8
b110 :
11
#85000
01
#90000
b1101 ;
b11101 $
b11101 4
b0 8
b1000 :
11
#95000
01
#100000
b1010 ;
b100 6
b1010 $
b1010 4
b110 8
b1101 :
11
#105000
01
#110000
b1011 ;
b110 6
b1011 $
b1011 4
b101 8
b1010 :
11
#115000
01
#120000
b1001 ;
b1000 6
b11001 $
b11001 4
b1 8
b1011 :
11
#125000
01
#130000
b1011 ;
b11011 $
b11011 4
b11 8
b1001 :
11
#135000
01
#140000
b10 ;
b101 6
b10 $
b10 4
b1101 8
b1011 :
11
#145000
01
#150000
b101 ;
b1001 6
b10101 $
b10101 4
b1100 8
b10 :
11
#155000
01
#160000
b1001 ;
b0 6
b11001 $
b11001 4
b1001 8
b101 :
11
#165000
01
#170000
b1110 ;
b11 6
b11110 $
b11110 4
b1011 8
b1001 :
11
#175000
01
#180000
b101 ;
b1101 6
b10101 $
b10101 4
b1000 8
b1110 :
11
#185000
01
#190000
b1111 ;
b11111 $
b11111 4
b10 8
b101 :
11
#195000
01
#200000
b1 ;
b110 6
b1 $
b1 4
b1011 8
b1111 :
11
#205000
01
#210000
b111 ;
b1001 6
b10111 $
b10111 4
b1110 8
b1 :
11
#215000
01
#220000
b1110 ;
b111 6
b1110 $
b1110 4
b111 8
b111 :
11
#225000
01
#230000
b1111 ;
b1110 6
b11111 $
b11111 4
b1 8
b1110 :
11
#235000
01
#240000
b1001 ;
b100 6
b1001 $
b1001 4
b101 8
b1111 :
11
#245000
01
#250000
b10 ;
b1 6
b10 $
b10 4
b1 8
b1001 :
11
#255000
01
#260000
b11 ;
b110 6
b11 $
b11 4
b1101 8
b10 :
11
#265000
01
#270000
b1001 ;
b1011 6
b11001 $
b11001 4
b1110 8
b11 :
11
#275000
01
#280000
b0 ;
b1100 6
b0 $
b0 4
b100 8
b1001 :
11
#285000
01
#290000
b1 ;
b11 6
b1 $
b1 4
b1110 8
b0 :
11
#295000
01
#300000
b1110 ;
b11110 $
b11110 4
b1011 8
b1 :
11
#305000
01
#310000
b1111 ;
b1101 6
b11111 $
b11111 4
b10 8
b1110 :
11
#315000
01
#320000
b1000 ;
b11000 $
b11000 4
b1011 8
b1111 :
11
#325000
01
#330000
b1100 ;
b1001 6
b11100 $
b11100 4
b11 8
b1000 :
11
#335000
01
#340000
b111 ;
b1110 6
b10111 $
b10111 4
b1001 8
b1100 :
11
#345000
01
#350000
b10 ;
b1000 6
b10010 $
b10010 4
b1010 8
b111 :
11
#355000
01
#360000
b111 ;
b100 6
b111 $
b111 4
b11 8
b10 :
11
#365000
01
#370000
b1010 ;
b1110 6
b11010 $
b11010 4
b1100 8
b111 :
11
#375000
01
#380000
b10 ;
b100 6
b10 $
b10 4
b1110 8
b1010 :
11
#385000
01
#390000
b11 ;
b1101 6
b11 $
b11 4
b110 8
b10 :
11
#395000
01
#400000
b1010 ;
b1011 6
b11010 $
b11010 4
b1111 8
b11 :
11
#405000
01
#410000
b0 ;
b0 $
b0 4
b101 8
b1010 :
11
#415000
01
#420000
b1000 ;
b1100 6
b11000 $
b11000 4
b1100 8
b0 :
11
#425000
01
#430000
b1011 ;
b1001 6
b11011 $
b11011 4
b10 8
b1000 :
11
#435000
01
#440000
b1110 ;
b100 6
b11110 $
b11110 4
b1010 8
b1011 :
11
#445000
01
#450000
b1001 ;
b10 6
b1001 $
b1001 4
b111 8
b1110 :
11
#455000
01
#460000
b110 ;
b1000 6
b10110 $
b10110 4
b1110 8
b1001 :
11
#465000
01
#470000
b101 ;
b1001 6
b10101 $
b10101 4
b1100 8
b110 :
11
#475000
01
#480000
b1011 ;
b10 6
b11011 $
b11011 4
b1001 8
b101 :
11
#485000
01
#490000
b110 6
b1011 $
b1011 4
b101 8
b1011 :
11
#495000
01
#500000
b101 ;
b101 $
b101 4
b1111 8
11
#505000
01
#510000
b1001 ;
b11 6
b1001 $
b1001 4
b110 8
b101 :
11
#515000
01
#520000
b1010 ;
b1001 6
b11010 $
b11010 4
b1 8
b1001 :
11
#525000
01
#530000
b1101 6
b11010 $
b11010 4
b1101 8
b1010 :
11
#535000
01
#540000
b1110 ;
b100 6
b11110 $
b11110 4
b1010 8
11
#545000
01
#550000
b1001 ;
b11001 $
b11001 4
b1111 6
b1110 :
11
#555000
01
#560000
b110 ;
b0 6
b110 $
b110 4
b110 8
b1001 :
11
#565000
01
#570000
b10 ;
b1 6
b10 $
b10 4
b1 8
b110 :
11
#575000
01
#580000
b1001 6
b10010 $
b10010 4
b1001 8
b10 :
11
#585000
01
#590000
b1001 ;
b1010 6
b11001 $
b11001 4
b1111 8
11
#595000
01
#600000
b1 ;
b1 $
b1 4
b10 6
b1001 :
11
#605000
01
#610000
b1110 ;
b1001 6
b11110 $
b11110 4
b101 8
b1 :
11
#615000
01
#620000
b1110 6
b11110 $
b11110 4
b0 8
b1110 :
11
#625000
01
#630000
b1010 ;
b1111 6
b11010 $
b11010 4
b1011 8
11
#635000
01
#640000
b10 ;
b1010 6
b10010 $
b10010 4
b1000 8
b1010 :
11
#645000
01
#650000
b1010 ;
b1 6
b11010 $
b11010 4
b1001 8
b10 :
11
#655000
01
#660000
b110 6
b1010 $
b1010 4
b100 8
b1010 :
11
#665000
01
#670000
b1101 ;
b111 6
b1101 $
b1101 4
b110 8
11
#675000
01
#680000
b100 ;
b1001 6
b10100 $
b10100 4
b1011 8
b1101 :
11
#685000
01
#690000
b1000 ;
b11000 $
b11000 4
b1101 6
b100 :
11
#695000
01
#700000
b0 ;
b1110 6
b0 $
b0 4
b10 8
b1000 :
11
#705000
01
#710000
b100 ;
b1001 6
b10100 $
b10100 4
b1011 8
b0 :
11
#715000
01
#720000
b11 ;
b1010 6
b10011 $
b10011 4
b1001 8
b100 :
11
#725000
01
#730000
b1110 ;
b11 6
b11110 $
b11110 4
b1011 8
b11 :
11
#735000
01
#740000
b1111 ;
b11111 $
b11111 4
b1100 8
b1110 :
11
#745000
01
#750000
b1000 ;
b101 6
b1000 $
b1000 4
b11 8
b1111 :
11
#755000
01
#760000
b1011 ;
b1100 6
b11011 $
b11011 4
b1111 8
b1000 :
11
#765000
01
#770000
b1000 ;
b111 6
b1000 $
b1000 4
b1 8
b1011 :
11
#775000
01
#780000
b1 ;
b1 $
b1 4
b1010 8
b1000 :
11
#785000
01
#790000
b11 ;
b1110 6
b11 $
b11 4
b101 8
b1 :
11
#795000
01
#800000
b1111 ;
b11111 $
b11111 4
b1010 6
b11 :
11
#805000
01
#810000
b10 ;
b101 6
b10 $
b10 4
b1101 8
b1111 :
11
#815000
01
#820000
b1010 ;
b111 6
b1010 $
b1010 4
b11 8
b10 :
11
#825000
01
#830000
b1001 ;
b0 6
b11001 $
b11001 4
b1001 8
b1010 :
11
#835000
01
#840000
b1000 ;
b1 6
b1000 $
b1000 4
b111 8
b1001 :
11
#845000
01
#850000
b0 ;
b1011 6
b0 $
b0 4
b101 8
b1000 :
11
#855000
01
#860000
b1000 ;
b1000 $
b1000 4
b11 6
b0 :
11
#865000
01
#870000
b100 ;
b1011 6
b10100 $
b10100 4
b1001 8
b1000 :
11
#875000
01
#880000
b1001 ;
b1010 6
b11001 $
b11001 4
b1111 8
b100 :
11
#885000
01
#890000
b1101 ;
b1 6
b11101 $
b11101 4
b1100 8
b1001 :
11
#895000
01
#900000
b11 ;
b11 6
b11 $
b11 4
b0 8
b1101 :
11
#905000
01
#910000
b100 ;
b1000 6
b10100 $
b10100 4
b1100 8
b11 :
11
#915000
01
#920000
b1010 ;
b111 6
b1010 $
b1010 4
b11 8
b100 :
11
#925000
01
#930000
b1010 :
11
#935000
01
#940000
b1110 6
b11010 $
b11010 4
b1100 8
11
#945000
01
#950000
b1000 ;
b111 6
b1000 $
b1000 4
b1 8
11
#955000
01
#960000
b1110 ;
b1001 6
b11110 $
b11110 4
b101 8
b1000 :
11
#965000
01
#970000
b1010 ;
b1010 $
b1010 4
b101 6
b1110 :
11
#975000
01
#980000
b1001 ;
b1011 6
b11001 $
b11001 4
b1110 8
b1010 :
11
#985000
01
#990000
b0 ;
b1001 6
b0 $
b0 4
b111 8
b1001 :
11
#995000
01
#1000000
b1110 ;
b11 6
b11110 $
b11110 4
b1011 8
b0 :
11
#1005000
01
#1010000
0=
0#
0-
0.
0+
0"
0,
0/
00
b1110 :
11
#1015000
01
#1020000
0)
1(
0&
0!
1%
0<
11
#1020001
b0 ;
13
#1025001
01
#1030001
b0 :
11
#1035001
01
#1040001
b1000 ;
1=
1#
1-
1.
1+
1"
1,
03
1/
b11000 $
b11000 4
b1101 6
10
11
#1045001
01
#1050001
b111 ;
b10111 $
b10111 4
b1100 6
1=
1)
0(
1&
1!
0%
1<
b1000 :
11
#1055001
01
#1060001
b10 ;
b1101 6
b10 $
b10 4
b101 8
b111 :
11
#1065001
01
#1070001
b1 ;
b101 6
b1 $
b1 4
b1100 8
b10 :
11
#1075001
01
#1080001
b11 ;
b1 6
b11 $
b11 4
b10 8
b1 :
11
#1085001
01
#1090001
b1111 ;
b11111 $
b11111 4
b1110 8
b11 :
11
#1095001
01
#1100001
b111 ;
b111 $
b111 4
b110 8
b1111 :
11
#1105001
01
#1110001
b1101 ;
b1101 $
b1101 4
b111 6
b111 :
11
#1115001
01
#1120001
b1 ;
b1000 6
b10001 $
b10001 4
b1001 8
b1101 :
11
#1125001
01
#1130001
b11 ;
b1 6
b11 $
b11 4
b10 8
b1 :
11
#1135001
01
#1140001
b101 ;
b1110 6
b101 $
b101 4
b111 8
b11 :
11
#1145001
01
#1150001
b111 6
b101 $
b101 4
b1110 8
b101 :
11
#1155001
01
#1160001
b100 ;
b1010 6
b10100 $
b10100 4
b1010 8
11
#1165001
01
#1170001
b11 ;
b101 6
b11 $
b11 4
b1110 8
b100 :
11
#1175001
01
#1180001
b1111 ;
b11111 $
b11111 4
b1010 8
b11 :
11
#1185001
01
#1190001
b1011 ;
b1110 6
b11011 $
b11011 4
b1101 8
b1111 :
11
#1195001
01
#1200001
b1100 ;
b101 6
b1100 $
b1100 4
b111 8
b1011 :
11
#1205001
01
#1210001
b1000 ;
b1000 6
b11000 $
b11000 4
b0 8
b1100 :
11
#1215001
01
#1220001
b1111 ;
b1 6
b11111 $
b11111 4
b1110 8
b1000 :
11
#1225001
01
#1230001
b1110 ;
b110 6
b11110 $
b11110 4
b1000 8
b1111 :
11
#1235001
01
#1240001
b1011 6
b11110 $
b11110 4
b11 8
b1110 :
11
#1245001
01
#1250001
b100 ;
b111 6
b100 $
b100 4
b1101 8
11
#1255001
01
#1260001
b111 ;
b100 6
b111 $
b111 4
b11 8
b100 :
11
#1265001
01
#1270001
b1000 ;
b111 6
b1000 $
b1000 4
b1 8
b111 :
11
#1275001
01
#1280001
b11 ;
b1110 6
b11 $
b11 4
b101 8
b1000 :
11
#1285001
01
#1290001
b1101 ;
b11101 $
b11101 4
b1000 6
b11 :
11
#1295001
01
#1300001
b1010 ;
b1100 6
b11010 $
b11010 4
b1110 8
b1101 :
11
#1305001
01
#1310001
b1101 ;
b1010 6
b11101 $
b11101 4
b11 8
b1010 :
11
#1315001
01
#1320001
b111 ;
b11 6
b111 $
b111 4
b100 8
b1101 :
11
#1325001
01
#1330001
b1111 ;
b1110 6
b11111 $
b11111 4
b1 8
b111 :
11
#1335001
01
#1340001
b10 ;
b1011 6
b10 $
b10 4
b111 8
b1111 :
11
#1345001
01
#1350001
b1 ;
b1 6
b1 $
b1 4
b0 8
b10 :
11
#1355001
01
#1360001
b1000 6
b10001 $
b10001 4
b1001 8
b1 :
11
#1365001
01
#1370001
b1101 ;
b1001 6
b11101 $
b11101 4
b100 8
11
#1375001
01
#1380001
b1110 ;
b1100 6
b11110 $
b11110 4
b10 8
b1101 :
11
#1385001
01
#1390001
b1111 ;
b0 6
b11111 $
b11111 4
b1111 8
b1110 :
11
#1395001
01
#1400001
b1010 ;
b110 6
b1010 $
b1010 4
b100 8
b1111 :
11
#1405001
01
#1410001
b1 ;
b1011 6
b1 $
b1 4
b110 8
b1010 :
11
#1415001
01
#1420001
b100 6
b1 $
b1 4
b1101 8
b1 :
11
#1425001
01
#1430001
b111 ;
b1111 6
b10111 $
b10111 4
b1000 8
11
#1435001
01
#1440001
b1001 ;
b10 6
b1001 $
b1001 4
b111 8
b111 :
11
#1445001
01
#1450001
b110 ;
b100 6
b110 $
b110 4
b10 8
b1001 :
11
#1455001
01
#1460001
b0 ;
b1000 6
b10000 $
b10000 4
b1000 8
b110 :
11
#1465001
01
#1470001
b1010 ;
b1111 6
b11010 $
b11010 4
b1011 8
b0 :
11
#1475001
01
#1480001
b110 ;
b1 6
b110 $
b110 4
b101 8
b1010 :
11
#1485001
01
#1490001
b1101 ;
b10 6
b11101 $
b11101 4
b1011 8
b110 :
11
#1495001
01
#1500001
b100 ;
b1100 6
b10100 $
b10100 4
b1000 8
b1101 :
11
#1505001
01
#1510001
b111 ;
b101 6
b111 $
b111 4
b10 8
b100 :
11
#1515001
01
#1520001
b111 6
b111 $
b111 4
b0 8
b111 :
11
#1525001
01
#1530001
b1001 ;
b101 6
b1001 $
b1001 4
b100 8
11
#1535001
01
#1540001
b101 ;
b110 6
b101 $
b101 4
b1111 8
b1001 :
11
#1545001
01
#1550001
b1001 ;
b1100 6
b11001 $
b11001 4
b1101 8
b101 :
11
#1555001
01
#1560001
b1000 ;
b10 6
b1000 $
b1000 4
b110 8
b1001 :
11
#1565001
01
#1570001
b101 ;
b110 6
b101 $
b101 4
b1111 8
b1000 :
11
#1575001
01
#1580001
b100 ;
b1001 6
b10100 $
b10100 4
b1011 8
b101 :
11
#1585001
01
#1590001
b1111 ;
b101 6
b11111 $
b11111 4
b1010 8
b100 :
11
#1595001
01
#1600001
b10 ;
b1110 6
b10 $
b10 4
b100 8
b1111 :
11
#1605001
01
#1610001
b101 ;
b1010 6
b10101 $
b10101 4
b1011 8
b10 :
11
#1615001
01
#1620001
b10 ;
b1001 6
b10010 $
b10010 4
b1001 8
b101 :
11
#1625001
01
#1630001
b0 ;
b11 6
b0 $
b0 4
b1101 8
b10 :
11
#1635001
01
#1640001
b1000 ;
b110 6
b1000 $
b1000 4
b10 8
b0 :
11
#1645001
01
#1650001
b1011 ;
b1010 6
b11011 $
b11011 4
b1 8
b1000 :
11
#1655001
01
#1660001
b101 ;
b111 6
b101 $
b101 4
b1110 8
b1011 :
11
#1665001
01
#1670001
b111 ;
b110 6
b111 $
b111 4
b1 8
b101 :
11
#1675001
01
#1680001
b0 ;
b1000 6
b10000 $
b10000 4
b1000 8
b111 :
11
#1685001
01
#1690001
b1001 ;
b11 6
b1001 $
b1001 4
b110 8
b0 :
11
#1695001
01
#1700001
b111 ;
b111 $
b111 4
b1 6
b1001 :
11
#1705001
01
#1710001
b100 ;
b100 6
b100 $
b100 4
b0 8
b111 :
11
#1715001
01
#1720001
b11 ;
b1110 6
b11 $
b11 4
b101 8
b100 :
11
#1725001
01
#1730001
b110 ;
b1101 6
b10110 $
b10110 4
b1001 8
b11 :
11
#1735001
01
#1740001
b1011 ;
b1111 6
b11011 $
b11011 4
b1100 8
b110 :
11
#1745001
01
#1750001
b1100 ;
b1001 6
b11100 $
b11100 4
b11 8
b1011 :
11
#1755001
01
#1760001
b0 ;
b101 6
b0 $
b0 4
b1011 8
b1100 :
11
#1765001
01
#1770001
b1100 ;
b1100 $
b1100 4
b111 8
b0 :
11
#1775001
01
#1780001
b110 ;
b10 6
b110 $
b110 4
b100 8
b1100 :
11
#1785001
01
#1790001
b111 ;
b1110 6
b10111 $
b10111 4
b1001 8
b110 :
11
#1795001
01
#1800001
b110 ;
b10 6
b110 $
b110 4
b100 8
b111 :
11
#1805001
01
#1810001
b11 ;
b11 6
b11 $
b11 4
b0 8
b110 :
11
#1815001
01
#1820001
b1001 ;
b1011 6
b11001 $
b11001 4
b1110 8
b11 :
11
#1825001
01
#1830001
b110 6
b1001 $
b1001 4
b11 8
b1001 :
11
#1835001
01
#1840001
b101 ;
b101 $
b101 4
b1111 8
11
#1845001
01
#1850001
b1101 ;
b0 6
b11101 $
b11101 4
b1101 8
b101 :
11
#1855001
01
#1860001
b100 ;
b1011 6
b10100 $
b10100 4
b1001 8
b1101 :
11
#1865001
01
#1870001
b1001 ;
b11001 $
b11001 4
b0 6
b100 :
11
#1875001
01
#1880001
b100 ;
b1101 6
b100 $
b100 4
b111 8
b1001 :
11
#1885001
01
#1890001
b1 ;
b100 6
b1 $
b1 4
b1101 8
b100 :
11
#1895001
01
#1900001
b1101 6
b1 $
b1 4
b100 8
b1 :
11
#1905001
01
#1910001
b1010 ;
b1110 6
b11010 $
b11010 4
b1100 8
11
#1915001
01
#1920001
b101 ;
b1010 6
b10101 $
b10101 4
b1011 8
b1010 :
11
#1925001
01
#1930001
b1001 ;
b1000 6
b11001 $
b11001 4
b1 8
b101 :
11
#1935001
01
#1940001
b0 ;
b0 6
b0 $
b0 4
b0 8
b1001 :
11
#1945001
01
#1950001
b1 ;
b100 6
b1 $
b1 4
b1101 8
b0 :
11
#1955001
01
#1960001
b0 ;
b1010 6
b0 $
b0 4
b110 8
b1 :
11
#1965001
01
#1970001
b10 ;
b100 6
b10 $
b10 4
b1110 8
b0 :
11
#1975001
01
#1980001
b1001 ;
b1001 6
b11001 $
b11001 4
b0 8
b10 :
11
#1985001
01
#1990001
b1101 ;
b10 6
b11101 $
b11101 4
b1011 8
b1001 :
11
#1995001
01
#2000001
b1001 ;
b100 6
b1001 $
b1001 4
b101 8
b1101 :
11
#2005001
01
#2010001
b1111 ;
b11 6
b11111 $
b11111 4
b1100 8
b1001 :
11
#2015001
01
#2020001
b101 ;
b0 6
b101 $
b101 4
b101 8
b1111 :
11
#2025001
01
#2030001
b100 ;
b10 6
b100 $
b100 4
b10 8
b101 :
11
#2035001
01
#2040001
0=
0#
0-
0.
0+
0"
0,
0/
00
b100 :
11
#2045001
01
#2050001
b0 ;
1=
1#
1-
1.
1+
1"
1,
1/
b0 6
10
b0 $
b0 4
b0 8
0)
1(
0&
0!
1%
0<
11
#2055001
01
#2060001
b1 ;
b1 $
b1 4
b1 8
1=
1)
0(
1&
1!
0%
b0 :
1<
11
#2065001
01
#2070001
b10 ;
b10 $
b10 4
b10 8
b1 :
11
#2075001
01
#2080001
b11 ;
b11 $
b11 4
b11 8
b10 :
11
#2085001
01
#2090001
b100 ;
b100 $
b100 4
b100 8
b11 :
11
#2095001
01
#2100001
b101 ;
b101 $
b101 4
b101 8
b100 :
11
#2105001
01
#2110001
b110 ;
b110 $
b110 4
b110 8
b101 :
11
#2115001
01
#2120001
b111 ;
b111 $
b111 4
b111 8
b110 :
11
#2125001
01
#2130001
b1000 ;
b11000 $
b11000 4
b1000 8
b111 :
11
#2135001
01
#2140001
b1001 ;
b11001 $
b11001 4
b1001 8
b1000 :
11
#2145001
01
#2150001
b1010 ;
b11010 $
b11010 4
b1010 8
b1001 :
11
#2155001
01
#2160001
b1011 ;
b11011 $
b11011 4
b1011 8
b1010 :
11
#2165001
01
#2170001
b1100 ;
b11100 $
b11100 4
b1100 8
b1011 :
11
#2175001
01
#2180001
b1101 ;
b11101 $
b11101 4
b1101 8
b1100 :
11
#2185001
01
#2190001
b1110 ;
b11110 $
b11110 4
b1110 8
b1101 :
11
#2195001
01
#2200001
b1111 ;
b11111 $
b11111 4
b1111 8
b1110 :
11
#2205001
01
#2210001
b1 ;
b1 6
b1 $
b1 4
b0 8
b1111 :
11
#2215001
01
#2220001
b10 ;
b10 $
b10 4
b1 8
b1 :
11
#2225001
01
#2230001
b11 ;
b11 $
b11 4
b10 8
b10 :
11
#2235001
01
#2240001
b100 ;
b100 $
b100 4
b11 8
b11 :
11
#2245001
01
#2250001
b101 ;
b101 $
b101 4
b100 8
b100 :
11
#2255001
01
#2260001
b110 ;
b110 $
b110 4
b101 8
b101 :
11
#2265001
01
#2270001
b111 ;
b111 $
b111 4
b110 8
b110 :
11
#2275001
01
#2280001
b1000 ;
b1000 $
b1000 4
b111 8
b111 :
11
#2285001
01
#2290001
b1001 ;
b11001 $
b11001 4
b1000 8
b1000 :
11
#2295001
01
#2300001
b1010 ;
b11010 $
b11010 4
b1001 8
b1001 :
11
#2305001
01
#2310001
b1011 ;
b11011 $
b11011 4
b1010 8
b1010 :
11
#2315001
01
#2320001
b1100 ;
b11100 $
b11100 4
b1011 8
b1011 :
11
#2325001
01
#2330001
b1101 ;
b11101 $
b11101 4
b1100 8
b1100 :
11
#2335001
01
#2340001
b1110 ;
b11110 $
b11110 4
b1101 8
b1101 :
11
#2345001
01
#2350001
b1111 ;
b11111 $
b11111 4
b1110 8
b1110 :
11
#2355001
01
#2360001
b0 ;
b0 $
b0 4
b1111 8
b1111 :
11
#2365001
01
#2370001
b10 ;
b10 6
b10 $
b10 4
b0 8
b0 :
11
#2375001
01
#2380001
b11 ;
b11 $
b11 4
b1 8
b10 :
11
#2385001
01
#2390001
b100 ;
b100 $
b100 4
b10 8
b11 :
11
#2395001
01
#2400001
b101 ;
b101 $
b101 4
b11 8
b100 :
11
#2405001
01
#2410001
b110 ;
b110 $
b110 4
b100 8
b101 :
11
#2415001
01
#2420001
b111 ;
b111 $
b111 4
b101 8
b110 :
11
#2425001
01
#2430001
b1000 ;
b1000 $
b1000 4
b110 8
b111 :
11
#2435001
01
#2440001
b1001 ;
b1001 $
b1001 4
b111 8
b1000 :
11
#2445001
01
#2450001
b1010 ;
b11010 $
b11010 4
b1000 8
b1001 :
11
#2455001
01
#2460001
b1011 ;
b11011 $
b11011 4
b1001 8
b1010 :
11
#2465001
01
#2470001
b1100 ;
b11100 $
b11100 4
b1010 8
b1011 :
11
#2475001
01
#2480001
b1101 ;
b11101 $
b11101 4
b1011 8
b1100 :
11
#2485001
01
#2490001
b1110 ;
b11110 $
b11110 4
b1100 8
b1101 :
11
#2495001
01
#2500001
b1111 ;
b11111 $
b11111 4
b1101 8
b1110 :
11
#2505001
01
#2510001
b0 ;
b0 $
b0 4
b1110 8
b1111 :
11
#2515001
01
#2520001
b1 ;
b1 $
b1 4
b1111 8
b0 :
11
#2525001
01
#2530001
b11 ;
b11 6
b11 $
b11 4
b0 8
b1 :
11
#2535001
01
#2540001
b100 ;
b100 $
b100 4
b1 8
b11 :
11
#2545001
01
#2550001
b101 ;
b101 $
b101 4
b10 8
b100 :
11
#2555001
01
#2560001
b110 ;
b110 $
b110 4
b11 8
b101 :
11
#2565001
01
#2570001
b111 ;
b111 $
b111 4
b100 8
b110 :
11
#2575001
01
#2580001
b1000 ;
b1000 $
b1000 4
b101 8
b111 :
11
#2585001
01
#2590001
b1001 ;
b1001 $
b1001 4
b110 8
b1000 :
11
#2595001
01
#2600001
b1010 ;
b1010 $
b1010 4
b111 8
b1001 :
11
#2605001
01
#2610001
b1011 ;
b11011 $
b11011 4
b1000 8
b1010 :
11
#2615001
01
#2620001
b1100 ;
b11100 $
b11100 4
b1001 8
b1011 :
11
#2625001
01
#2630001
b1101 ;
b11101 $
b11101 4
b1010 8
b1100 :
11
#2635001
01
#2640001
b1110 ;
b11110 $
b11110 4
b1011 8
b1101 :
11
#2645001
01
#2650001
b1111 ;
b11111 $
b11111 4
b1100 8
b1110 :
11
#2655001
01
#2660001
b0 ;
b0 $
b0 4
b1101 8
b1111 :
11
#2665001
01
#2670001
b1 ;
b1 $
b1 4
b1110 8
b0 :
11
#2675001
01
#2680001
b10 ;
b10 $
b10 4
b1111 8
b1 :
11
#2685001
01
#2690001
b100 ;
b100 6
b100 $
b100 4
b0 8
b10 :
11
#2695001
01
#2700001
b101 ;
b101 $
b101 4
b1 8
b100 :
11
#2705001
01
#2710001
b110 ;
b110 $
b110 4
b10 8
b101 :
11
#2715001
01
#2720001
b111 ;
b111 $
b111 4
b11 8
b110 :
11
#2725001
01
#2730001
b1000 ;
b1000 $
b1000 4
b100 8
b111 :
11
#2735001
01
#2740001
b1001 ;
b1001 $
b1001 4
b101 8
b1000 :
11
#2745001
01
#2750001
b1010 ;
b1010 $
b1010 4
b110 8
b1001 :
11
#2755001
01
#2760001
b1011 ;
b1011 $
b1011 4
b111 8
b1010 :
11
#2765001
01
#2770001
b1100 ;
b11100 $
b11100 4
b1000 8
b1011 :
11
#2775001
01
#2780001
b1101 ;
b11101 $
b11101 4
b1001 8
b1100 :
11
#2785001
01
#2790001
b1110 ;
b11110 $
b11110 4
b1010 8
b1101 :
11
#2795001
01
#2800001
b1111 ;
b11111 $
b11111 4
b1011 8
b1110 :
11
#2805001
01
#2810001
b0 ;
b0 $
b0 4
b1100 8
b1111 :
11
#2815001
01
#2820001
b1 ;
b1 $
b1 4
b1101 8
b0 :
11
#2825001
01
#2830001
b10 ;
b10 $
b10 4
b1110 8
b1 :
11
#2835001
01
#2840001
b11 ;
b11 $
b11 4
b1111 8
b10 :
11
#2845001
01
#2850001
b101 ;
b101 6
b101 $
b101 4
b0 8
b11 :
11
#2855001
01
#2860001
b110 ;
b110 $
b110 4
b1 8
b101 :
11
#2865001
01
#2870001
b111 ;
b111 $
b111 4
b10 8
b110 :
11
#2875001
01
#2880001
b1000 ;
b1000 $
b1000 4
b11 8
b111 :
11
#2885001
01
#2890001
b1001 ;
b1001 $
b1001 4
b100 8
b1000 :
11
#2895001
01
#2900001
b1010 ;
b1010 $
b1010 4
b101 8
b1001 :
11
#2905001
01
#2910001
b1011 ;
b1011 $
b1011 4
b110 8
b1010 :
11
#2915001
01
#2920001
b1100 ;
b1100 $
b1100 4
b111 8
b1011 :
11
#2925001
01
#2930001
b1101 ;
b11101 $
b11101 4
b1000 8
b1100 :
11
#2935001
01
#2940001
b1110 ;
b11110 $
b11110 4
b1001 8
b1101 :
11
#2945001
01
#2950001
b1111 ;
b11111 $
b11111 4
b1010 8
b1110 :
11
#2955001
01
#2960001
b0 ;
b0 $
b0 4
b1011 8
b1111 :
11
#2965001
01
#2970001
b1 ;
b1 $
b1 4
b1100 8
b0 :
11
#2975001
01
#2980001
b10 ;
b10 $
b10 4
b1101 8
b1 :
11
#2985001
01
#2990001
b11 ;
b11 $
b11 4
b1110 8
b10 :
11
#2995001
01
#3000001
b100 ;
b100 $
b100 4
b1111 8
b11 :
11
#3005001
01
#3010001
b110 ;
b110 6
b110 $
b110 4
b0 8
b100 :
11
#3015001
01
#3020001
b111 ;
b111 $
b111 4
b1 8
b110 :
11
#3025001
01
#3030001
b1000 ;
b1000 $
b1000 4
b10 8
b111 :
11
#3035001
01
#3040001
b1001 ;
b1001 $
b1001 4
b11 8
b1000 :
11
#3045001
01
#3050001
b1010 ;
b1010 $
b1010 4
b100 8
b1001 :
11
#3055001
01
#3060001
b1011 ;
b1011 $
b1011 4
b101 8
b1010 :
11
#3065001
01
#3070001
b1100 ;
b1100 $
b1100 4
b110 8
b1011 :
11
#3075001
01
#3080001
b1101 ;
b1101 $
b1101 4
b111 8
b1100 :
11
#3085001
01
#3090001
b1110 ;
b11110 $
b11110 4
b1000 8
b1101 :
11
#3095001
01
#3100001
b1111 ;
b11111 $
b11111 4
b1001 8
b1110 :
11
#3105001
01
#3110001
b0 ;
b0 $
b0 4
b1010 8
b1111 :
11
#3115001
01
#3120001
b1 ;
b1 $
b1 4
b1011 8
b0 :
11
#3125001
01
#3130001
b10 ;
b10 $
b10 4
b1100 8
b1 :
11
#3135001
01
#3140001
b11 ;
b11 $
b11 4
b1101 8
b10 :
11
#3145001
01
#3150001
b100 ;
b100 $
b100 4
b1110 8
b11 :
11
#3155001
01
#3160001
b101 ;
b101 $
b101 4
b1111 8
b100 :
11
#3165001
01
#3170001
b111 ;
b111 6
b111 $
b111 4
b0 8
b101 :
11
#3175001
01
#3180001
b1000 ;
b1000 $
b1000 4
b1 8
b111 :
11
