ej1/adder.vcd
$date
	Sat May 15 18:46:06 2021
$end
$version
	Icarus Verilog
$end
$timescale
	1ps
$end
$scope module top $end
$var wire 1 ! \$1 $end
$var wire 1 " \$11 $end
$var wire 4 # \$13 [3:0] $end
$var wire 1 $ \$16 $end
$var wire 1 % \$18 $end
$var wire 1 & \$20 $end
$var wire 1 ' \$22 $end
$var wire 1 ( \$24 $end
$var wire 1 ) \$26 $end
$var wire 1 * \$3 $end
$var wire 1 + \$5 $end
$var wire 1 , \$7 $end
$var wire 1 - \$9 $end
$var wire 1 . a__valid $end
$var wire 1 / b__valid $end
$var wire 1 0 clk $end
$var wire 1 1 r__ready $end
$var wire 1 2 rst $end
$var wire 4 3 \$14 [3:0] $end
$var reg 1 4 \$verilog_initial_trigger $end
$var reg 3 5 a__data [2:0] $end
$var reg 1 6 a__ready $end
$var reg 3 7 b__data [2:0] $end
$var reg 1 8 b__ready $end
$var reg 3 9 r__data [2:0] $end
$var reg 3 : \r__data$next [2:0] $end
$var reg 1 ; r__valid $end
$var reg 1 < \r__valid$next $end
$upscope $end
$enddefinitions $end
#0
$dumpvars
0<
0;
b0 :
b0 9
18
b0 7
16
b0 5
04
b0 3
12
z1
10
z/
z.
x-
x,
x+
x*
1)
0(
1'
1&
0%
1$
b0 #
x"
x!
$end
#5000
00
#10000
b111 :
1<
1"
1+
1!
1,
1-
1*
02
1.
b110 5
1/
b1111 #
b1111 3
b1 7
11
10
#15000
00
#20000
b0 :
b11 5
b0 #
b0 3
b101 7
1(
0'
1%
0$
b111 9
1;
10
#25000
00
#30000
b11 :
b11 #
b11 3
b0 7
b0 9
10
#35000
00
#40000
b101 :
b101 #
b101 3
b10 7
b11 9
10
#45000
00
#50000
b100 :
b1 5
b100 #
b100 3
b11 7
b101 9
10
#55000
00
#60000
b0 :
b0 #
b0 3
b111 7
b100 9
10
#65000
00
#70000
b0 9
10
#75000
00
#80000
b100 :
b10 5
b100 #
b100 3
b10 7
10
#85000
00
#90000
b100 5
b1100 #
b1100 3
b0 7
b100 9
10
#95000
00
#100000
b101 :
b0 5
b1101 #
b1101 3
b101 7
10
#105000
00
#110000
b111 :
b1 5
b1111 #
b1111 3
b110 7
b101 9
10
#115000
00
#120000
b0 :
b110 5
b0 #
b0 3
b10 7
b111 9
10
#125000
00
#130000
b1 :
b0 5
b1 #
b1 3
b1 7
b0 9
10
#135000
00
#140000
b10 :
b111 5
b10 #
b10 3
b11 7
b1 9
10
#145000
00
#150000
b11 :
b1 5
b11 #
b11 3
b10 7
b10 9
10
#155000
00
#160000
b10 :
b11 5
b10 #
b10 3
b111 7
b11 9
10
#165000
00
#170000
b100 :
b0 5
b1100 #
b1100 3
b100 7
b10 9
10
#175000
00
#180000
b1 :
b1 5
b1 #
b1 3
b0 7
b100 9
10
#185000
00
#190000
b101 :
b1101 #
b1101 3
b100 7
b1 9
10
#195000
00
#200000
b111 :
b111 5
b1111 #
b1111 3
b0 7
b101 9
10
#205000
00
#210000
b0 :
b110 5
b0 #
b0 3
b10 7
b111 9
10
#215000
00
#220000
b1 :
b11 5
b1 #
b1 3
b110 7
b0 9
10
#225000
00
#230000
b0 :
b0 #
b0 3
b10 5
b1 9
10
#235000
00
#240000
b111 :
b100 5
b1111 #
b1111 3
b11 7
b0 9
10
#245000
00
#250000
b1 :
b11 5
b1 #
b1 3
b110 7
b111 9
10
#255000
00
#260000
b101 :
b110 5
b1101 #
b1101 3
b111 7
b1 9
10
#265000
00
#270000
b1 :
b11 5
b1 #
b1 3
b110 7
b101 9
10
#275000
00
#280000
b10 :
b1 5
b10 #
b10 3
b1 7
b1 9
10
#285000
00
#290000
b110 5
b1010 #
b1010 3
b100 7
b10 9
10
#295000
00
#300000
b101 :
b1101 #
b1101 3
b1 5
10
#305000
00
#310000
b0 :
b110 5
b0 #
b0 3
b10 7
b101 9
10
#315000
00
#320000
b101 :
b1101 #
b1101 3
b111 7
b0 9
10
#325000
00
#330000
b10 :
b10 5
b10 #
b10 3
b0 7
b101 9
10
#335000
00
#340000
b1 :
b11 5
b1 #
b1 3
b110 7
b10 9
10
#345000
00
#350000
b10 5
b1 #
b1 3
b111 7
b1 9
10
#355000
00
#360000
b111 :
b1111 #
b1111 3
b101 7
10
#365000
00
#370000
b100 :
b1 5
b100 #
b100 3
b11 7
b111 9
10
#375000
00
#380000
b11 :
b10 5
b11 #
b11 3
b1 7
b100 9
10
#385000
00
#390000
b10 :
b11 5
b10 #
b10 3
b111 7
b11 9
10
#395000
00
#400000
b0 :
b0 5
b0 #
b0 3
b0 7
b10 9
10
#405000
00
#410000
b10 :
b101 5
b1010 #
b1010 3
b101 7
b0 9
10
#415000
00
#420000
b100 :
b11 5
b100 #
b100 3
b1 7
b10 9
10
#425000
00
#430000
b10 :
b0 5
b10 #
b10 3
b10 7
b100 9
10
#435000
00
#440000
b0 :
b11 5
b0 #
b0 3
b101 7
b10 9
10
#445000
00
#450000
b101 :
b101 5
b1101 #
b1101 3
b0 7
b0 9
10
#455000
00
#460000
b110 :
b111 5
b1110 #
b1110 3
b111 7
b101 9
10
#465000
00
#470000
b101 :
b101 5
b1101 #
b1101 3
b0 7
b110 9
10
#475000
00
#480000
b111 :
b110 5
b1111 #
b1111 3
b1 7
b101 9
10
#485000
00
#490000
b110 :
b1110 #
b1110 3
b101 5
b111 9
10
#495000
00
#500000
b100 :
b1 5
b100 #
b100 3
b11 7
b110 9
10
#505000
00
#510000
b1 :
b11 5
b1 #
b1 3
b110 7
b100 9
10
#515000
00
#520000
b10 :
b101 5
b1010 #
b1010 3
b101 7
b1 9
10
#525000
00
#530000
b110 :
b10 5
b1110 #
b1110 3
b100 7
b10 9
10
#535000
00
#540000
b11 :
b110 5
b1011 #
b1011 3
b101 7
b110 9
10
#545000
00
#550000
b101 :
b111 5
b1101 #
b1101 3
b110 7
b11 9
10
#555000
00
#560000
b110 :
b10 5
b1110 #
b1110 3
b100 7
b101 9
10
#565000
00
#570000
b111 :
b110 5
b1111 #
b1111 3
b1 7
b110 9
10
#575000
00
#580000
b100 :
b100 5
b1100 #
b1100 3
b0 7
b111 9
10
#585000
00
#590000
b1 :
b0 5
b1 #
b1 3
b1 7
b100 9
10
#595000
00
#600000
b111 :
b10 5
b1111 #
b1111 3
b101 7
b1 9
10
#605000
00
#610000
b101 :
b1101 #
b1101 3
b0 5
b111 9
10
#615000
00
#620000
b11 :
b11 #
b11 3
b11 7
b101 9
10
#625000
00
#630000
b0 :
b111 5
b0 #
b0 3
b1 7
b11 9
10
#635000
00
#640000
b111 :
b0 5
b1111 #
b1111 3
b111 7
b0 9
10
#645000
00
#650000
b101 :
b111 5
b1101 #
b1101 3
b110 7
b111 9
10
#655000
00
#660000
b0 :
b0 #
b0 3
b10 5
b101 9
10
#665000
00
#670000
b110 :
b111 5
b1110 #
b1110 3
b111 7
b0 9
10
#675000
00
#680000
b101 :
b1101 #
b1101 3
b110 7
b110 9
10
#685000
00
#690000
b111 :
b110 5
b1111 #
b1111 3
b1 7
b101 9
10
#695000
00
#700000
b101 :
b11 5
b101 #
b101 3
b10 7
b111 9
10
#705000
00
#710000
b111 :
b1111 #
b1111 3
b101 5
b101 9
10
#715000
00
#720000
b111 5
b1111 #
b1111 3
b0 7
b111 9
10
#725000
00
#730000
b110 :
b11 5
b110 #
b110 3
b11 7
10
#735000
00
#740000
b1 :
b1 #
b1 3
b110 7
b110 9
10
#745000
00
#750000
b111 :
b1111 #
b1111 3
b100 7
b1 9
10
#755000
00
#760000
b10 :
b1 5
b10 #
b10 3
b1 7
b111 9
10
#765000
00
#770000
b0 5
b10 #
b10 3
b10 7
b10 9
10
#775000
00
#780000
b111 :
b1 5
b1111 #
b1111 3
b110 7
10
#785000
00
#790000
b1 :
b1 #
b1 3
b0 7
b111 9
10
#795000
00
#800000
b10 :
b0 5
b10 #
b10 3
b10 7
b1 9
10
#805000
00
#810000
b0 :
b0 #
b0 3
b0 7
b10 9
10
#815000
00
#820000
b100 :
b101 5
b1100 #
b1100 3
b111 7
b0 9
10
#825000
00
#830000
b111 :
b110 5
b1111 #
b1111 3
b1 7
b100 9
10
#835000
00
#840000
b101 :
b11 5
b101 #
b101 3
b10 7
b111 9
10
#845000
00
#850000
b0 :
b0 #
b0 3
b110 5
b101 9
10
#855000
00
#860000
b110 :
b0 5
b1110 #
b1110 3
b110 7
b0 9
10
#865000
00
#870000
b100 :
b111 5
b1100 #
b1100 3
b101 7
b110 9
10
#875000
00
#880000
b100 9
10
#885000
00
#890000
b0 :
b1 5
b0 #
b0 3
b111 7
10
#895000
00
#900000
b100 :
b100 #
b100 3
b11 7
b0 9
10
#905000
00
#910000
b100 5
b1100 #
b1100 3
b0 7
b100 9
10
#915000
00
#920000
b110 :
b0 5
b1110 #
b1110 3
b110 7
10
#925000
00
#930000
b10 :
b101 5
b1010 #
b1010 3
b101 7
b110 9
10
#935000
00
#940000
b0 :
b10 5
b0 #
b0 3
b110 7
b10 9
10
#945000
00
#950000
b100 :
b0 5
b1100 #
b1100 3
b100 7
b0 9
10
#955000
00
#960000
b100 9
10
#965000
00
#970000
b10 5
b100 #
b100 3
b10 7
10
#975000
00
#980000
b101 :
b101 #
b101 3
b11 5
10
#985000
00
#990000
b10 :
b10 #
b10 3
b111 7
b101 9
10
#995000
00
#1000000
b100 :
b1 5
b100 #
b100 3
b11 7
b10 9
10
#1005000
00
#1010000
b0 :
0<
0"
0+
0!
0,
0-
0*
0.
0/
b100 9
10
#1015000
00
#1020000
0(
1'
0%
1$
b0 9
0;
10
#1020001
12
#1025001
00
#1030001
10
#1035001
00
#1040001
b111 :
1<
1"
1+
1!
1,
1-
1*
02
1.
1/
b1111 #
b1111 3
b110 7
10
#1045001
00
#1050001
b11 :
b110 5
b1011 #
b1011 3
b101 7
1(
0'
1%
0$
1;
b111 9
10
#1055001
00
#1060001
b110 :
b0 5
b1110 #
b1110 3
b110 7
b11 9
10
#1065001
00
#1070001
b10 :
b1 5
b10 #
b10 3
b1 7
b110 9
10
#1075001
00
#1080001
b110 :
b110 5
b1110 #
b1110 3
b0 7
b10 9
10
#1085001
00
#1090001
b1 :
b11 5
b1 #
b1 3
b110 7
b110 9
10
#1095001
00
#1100001
b110 :
b100 5
b1110 #
b1110 3
b10 7
b1 9
10
#1105001
00
#1110001
b11 5
b110 #
b110 3
b11 7
b110 9
10
#1115001
00
#1120001
b111 :
b110 5
b1111 #
b1111 3
b1 7
10
#1125001
00
#1130001
b0 :
b1 5
b0 #
b0 3
b111 7
b111 9
10
#1135001
00
#1140001
b110 :
b110 5
b1110 #
b1110 3
b0 7
b0 9
10
#1145001
00
#1150001
b10 :
b101 5
b1010 #
b1010 3
b101 7
b110 9
10
#1155001
00
#1160001
b11 :
b1011 #
b1011 3
b110 5
b10 9
10
#1165001
00
#1170001
b111 :
b100 5
b1111 #
b1111 3
b11 7
b11 9
10
#1175001
00
#1180001
b10 :
b1010 #
b1010 3
b110 7
b111 9
10
#1185001
00
#1190001
b11 :
b111 5
b1011 #
b1011 3
b100 7
b10 9
10
#1195001
00
#1200001
b101 :
b110 5
b1101 #
b1101 3
b111 7
b11 9
10
#1205001
00
#1210001
b0 :
b11 5
b0 #
b0 3
b101 7
b101 9
10
#1215001
00
#1220001
b101 :
b111 5
b1101 #
b1101 3
b110 7
b0 9
10
#1225001
00
#1230001
b110 5
b1101 #
b1101 3
b111 7
b101 9
10
#1235001
00
#1240001
b1 :
b100 5
b1001 #
b1001 3
b101 7
10
#1245001
00
#1250001
b11 :
b1011 #
b1011 3
b111 7
b1 9
10
#1255001
00
#1260001
b110 :
b0 5
b1110 #
b1110 3
b110 7
b11 9
10
#1265001
00
#1270001
b101 :
b10 5
b101 #
b101 3
b11 7
b110 9
10
#1275001
00
#1280001
b1 :
b100 5
b1001 #
b1001 3
b101 7
b101 9
10
#1285001
00
#1290001
b0 :
b101 5
b0 #
b0 3
b11 7
b1 9
10
#1295001
00
#1300001
b111 5
b0 #
b0 3
b1 7
b0 9
10
#1305001
00
#1310001
b100 :
b1100 #
b1100 3
b101 7
10
#1315001
00
#1320001
b110 :
b1110 #
b1110 3
b111 7
b100 9
10
#1325001
00
#1330001
b10 :
b10 #
b10 3
b11 7
b110 9
10
#1335001
00
#1340001
b0 :
b0 #
b0 3
b1 7
b10 9
10
#1345001
00
#1350001
b100 :
b100 5
b1100 #
b1100 3
b0 7
b0 9
10
#1355001
00
#1360001
b111 :
b11 5
b1111 #
b1111 3
b100 7
b100 9
10
#1365001
00
#1370001
b101 :
b111 5
b1101 #
b1101 3
b110 7
b111 9
10
#1375001
00
#1380001
b111 :
b0 5
b1111 #
b1111 3
b111 7
b101 9
10
#1385001
00
#1390001
b10 5
b1111 #
b1111 3
b101 7
b111 9
10
#1395001
00
#1400001
b0 5
b1111 #
b1111 3
b111 7
10
#1405001
00
#1410001
b11 :
b110 5
b1011 #
b1011 3
b101 7
10
#1415001
00
#1420001
b100 :
b10 5
b100 #
b100 3
b10 7
b11 9
10
#1425001
00
#1430001
b0 5
b1100 #
b1100 3
b100 7
b100 9
10
#1435001
00
#1440001
b101 :
b1101 #
b1101 3
b101 7
10
#1445001
00
#1450001
b0 :
b1 5
b0 #
b0 3
b111 7
b101 9
10
#1455001
00
#1460001
b101 :
b10 5
b101 #
b101 3
b11 7
b0 9
10
#1465001
00
#1470001
b11 :
b101 5
b1011 #
b1011 3
b110 7
b101 9
10
#1475001
00
#1480001
b11 5
b11 #
b11 3
b0 7
b11 9
10
#1485001
00
#1490001
b101 :
b100 5
b1101 #
b1101 3
b1 7
10
#1495001
00
#1500001
b10 :
b10 5
b10 #
b10 3
b0 7
b101 9
10
#1505001
00
#1510001
b1 5
b10 #
b10 3
b1 7
b10 9
10
#1515001
00
#1520001
b111 :
b101 5
b1111 #
b1111 3
b10 7
10
#1525001
00
#1530001
b0 :
b10 5
b0 #
b0 3
b110 7
b111 9
10
#1535001
00
#1540001
b110 :
b1110 #
b1110 3
b0 5
b0 9
10
#1545001
00
#1550001
b11 :
b111 5
b1011 #
b1011 3
b100 7
b110 9
10
#1555001
00
#1560001
b100 :
b101 5
b1100 #
b1100 3
b111 7
b11 9
10
#1565001
00
#1570001
b111 :
b1111 #
b1111 3
b10 7
b100 9
10
#1575001
00
#1580001
b11 :
b100 5
b1011 #
b1011 3
b111 7
b111 9
10
#1585001
00
#1590001
b100 :
b110 5
b1100 #
b1100 3
b110 7
b11 9
10
#1595001
00
#1600001
b101 5
b1100 #
b1100 3
b111 7
b100 9
10
#1605001
00
#1610001
b10 :
b0 5
b10 #
b10 3
b10 7
10
#1615001
00
#1620001
b100 :
b1100 #
b1100 3
b100 7
b10 9
10
#1625001
00
#1630001
b101 :
b1101 #
b1101 3
b101 7
b100 9
10
#1635001
00
#1640001
b11 :
b11 #
b11 3
b11 7
b101 9
10
#1645001
00
#1650001
b110 :
b100 5
b1110 #
b1110 3
b10 7
b11 9
10
#1655001
00
#1660001
b100 :
b111 5
b1100 #
b1100 3
b101 7
b110 9
10
#1665001
00
#1670001
b110 :
b100 5
b1110 #
b1110 3
b10 7
b100 9
10
#1675001
00
#1680001
b101 :
b110 5
b1101 #
b1101 3
b111 7
b110 9
10
#1685001
00
#1690001
b11 :
b1 5
b11 #
b11 3
b10 7
b101 9
10
#1695001
00
#1700001
b100 5
b1011 #
b1011 3
b111 7
b11 9
10
#1705001
00
#1710001
b10 :
b1010 #
b1010 3
b110 7
10
#1715001
00
#1720001
b110 :
b1110 #
b1110 3
b10 7
b10 9
10
#1725001
00
#1730001
b101 :
b111 5
b1101 #
b1101 3
b110 7
b110 9
10
#1735001
00
#1740001
b100 :
b1 5
b100 #
b100 3
b11 7
b101 9
10
#1745001
00
#1750001
b111 :
b110 5
b1111 #
b1111 3
b1 7
b100 9
10
#1755001
00
#1760001
b11 :
b1 5
b11 #
b11 3
b10 7
b111 9
10
#1765001
00
#1770001
b10 :
b100 5
b1010 #
b1010 3
b110 7
b11 9
10
#1775001
00
#1780001
b1 :
b110 5
b1 #
b1 3
b11 7
b10 9
10
#1785001
00
#1790001
b0 :
b1 5
b0 #
b0 3
b111 7
b1 9
10
#1795001
00
#1800001
b1 :
b11 5
b1 #
b1 3
b110 7
b0 9
10
#1805001
00
#1810001
b100 :
b101 5
b1100 #
b1100 3
b111 7
b1 9
10
#1815001
00
#1820001
b10 :
b10 #
b10 3
b11 5
b100 9
10
#1825001
00
#1830001
b110 5
b1010 #
b1010 3
b100 7
b10 9
10
#1835001
00
#1840001
b101 :
b100 5
b1101 #
b1101 3
b1 7
10
#1845001
00
#1850001
b110 :
b1110 #
b1110 3
b10 7
b101 9
10
#1855001
00
#1860001
b1 5
b1110 #
b1110 3
b101 7
b110 9
10
#1865001
00
#1870001
10
#1875001
00
#1880001
b10 :
b100 5
b1010 #
b1010 3
b110 7
10
#1885001
00
#1890001
b11 5
b10 #
b10 3
b111 7
b10 9
10
#1895001
00
#1900001
b101 :
b101 5
b1101 #
b1101 3
b0 7
10
#1905001
00
#1910001
b0 :
b1 5
b0 #
b0 3
b111 7
b101 9
10
#1915001
00
#1920001
b100 :
b100 5
b1100 #
b1100 3
b0 7
b0 9
10
#1925001
00
#1930001
b0 :
b11 5
b0 #
b0 3
b101 7
b100 9
10
#1935001
00
#1940001
b101 :
b1 5
b1101 #
b1101 3
b100 7
b0 9
10
#1945001
00
#1950001
b11 :
b11 5
b11 #
b11 3
b0 7
b101 9
10
#1955001
00
#1960001
b11 9
10
#1965001
00
#1970001
b101 5
b1011 #
b1011 3
b110 7
10
#1975001
00
#1980001
b110 :
b110 5
b1110 #
b1110 3
b0 7
10
#1985001
00
#1990001
b100 :
b11 5
b100 #
b100 3
b1 7
b110 9
10
#1995001
00
#2000001
b101 :
b0 5
b1101 #
b1101 3
b101 7
b100 9
10
#2005001
00
#2010001
b11 :
b1011 #
b1011 3
b110 5
b101 9
10
#2015001
00
#2020001
b11 9
10
#2025001
00
#2030001
b110 :
b101 5
b1110 #
b1110 3
b1 7
10
#2035001
00
#2040001
b0 :
0<
0"
0+
0!
0,
0-
0*
0.
0/
b110 9
10
#2045001
00
#2050001
1<
1"
1+
1!
1,
1-
1*
1.
b0 5
1/
b0 #
b0 3
b0 7
0(
1'
0%
1$
0;
b0 9
10
#2055001
00
#2060001
b1 :
b1 #
b1 3
b1 7
1(
0'
1%
0$
1;
10
#2065001
00
#2070001
b10 :
b10 #
b10 3
b10 7
b1 9
10
#2075001
00
#2080001
b11 :
b11 #
b11 3
b11 7
b10 9
10
#2085001
00
#2090001
b100 :
b1100 #
b1100 3
b100 7
b11 9
10
#2095001
00
#2100001
b101 :
b1101 #
b1101 3
b101 7
b100 9
10
#2105001
00
#2110001
b110 :
b1110 #
b1110 3
b110 7
b101 9
10
#2115001
00
#2120001
b111 :
b1111 #
b1111 3
b111 7
b110 9
10
#2125001
00
#2130001
b1 :
b1 5
b1 #
b1 3
b0 7
b111 9
10
#2135001
00
#2140001
b10 :
b10 #
b10 3
b1 7
b1 9
10
#2145001
00
#2150001
b11 :
b11 #
b11 3
b10 7
b10 9
10
#2155001
00
#2160001
b100 :
b100 #
b100 3
b11 7
b11 9
10
#2165001
00
#2170001
b101 :
b1101 #
b1101 3
b100 7
b100 9
10
#2175001
00
#2180001
b110 :
b1110 #
b1110 3
b101 7
b101 9
10
#2185001
00
#2190001
b111 :
b1111 #
b1111 3
b110 7
b110 9
10
#2195001
00
#2200001
b0 :
b0 #
b0 3
b111 7
b111 9
10
#2205001
00
#2210001
b10 :
b10 5
b10 #
b10 3
b0 7
b0 9
10
#2215001
00
#2220001
b11 :
b11 #
b11 3
b1 7
b10 9
10
#2225001
00
#2230001
b100 :
b100 #
b100 3
b10 7
b11 9
10
#2235001
00
#2240001
b101 :
b101 #
b101 3
b11 7
b100 9
10
#2245001
00
#2250001
b110 :
b1110 #
b1110 3
b100 7
b101 9
10
#2255001
00
#2260001
b111 :
b1111 #
b1111 3
b101 7
b110 9
10
#2265001
00
#2270001
b0 :
b0 #
b0 3
b110 7
b111 9
10
#2275001
00
#2280001
b1 :
b1 #
b1 3
b111 7
b0 9
10
#2285001
00
#2290001
b11 :
b11 5
b11 #
b11 3
b0 7
b1 9
10
#2295001
00
#2300001
b100 :
b100 #
b100 3
b1 7
b11 9
10
#2305001
00
#2310001
b101 :
b101 #
b101 3
b10 7
b100 9
10
#2315001
00
#2320001
b110 :
b110 #
b110 3
b11 7
b101 9
10
#2325001
00
#2330001
b111 :
b1111 #
b1111 3
b100 7
b110 9
10
#2335001
00
#2340001
b0 :
b0 #
b0 3
b101 7
b111 9
10
#2345001
00
#2350001
b1 :
b1 #
b1 3
b110 7
b0 9
10
#2355001
00
#2360001
b10 :
b10 #
b10 3
b111 7
b1 9
10
#2365001
00
#2370001
b100 :
b100 5
b1100 #
b1100 3
b0 7
b10 9
10
#2375001
00
#2380001
b101 :
b1101 #
b1101 3
b1 7
b100 9
10
#2385001
00
#2390001
b110 :
b1110 #
b1110 3
b10 7
b101 9
10
#2395001
00
#2400001
b111 :
b1111 #
b1111 3
b11 7
b110 9
10
#2405001
00
#2410001
b0 :
b1000 #
b1000 3
b100 7
b111 9
10
#2415001
00
#2420001
b1 :
b1001 #
b1001 3
b101 7
b0 9
10
#2425001
00
#2430001
b10 :
b1010 #
b1010 3
b110 7
b1 9
10
#2435001
00
#2440001
b11 :
b1011 #
b1011 3
b111 7
b10 9
10
#2445001
00
#2450001
b101 :
b101 5
b1101 #
b1101 3
b0 7
b11 9
10
#2455001
00
#2460001
b110 :
b1110 #
b1110 3
b1 7
b101 9
10
#2465001
00
#2470001
b111 :
b1111 #
b1111 3
b10 7
b110 9
10
#2475001
00
#2480001
b0 :
b0 #
b0 3
b11 7
b111 9
10
#2485001
00
#2490001
b1 :
b1001 #
b1001 3
b100 7
b0 9
10
#2495001
00
#2500001
b10 :
b1010 #
b1010 3
b101 7
b1 9
10
#2505001
00
#2510001
b11 :
b1011 #
b1011 3
b110 7
b10 9
10
#2515001
00
#2520001
b100 :
b1100 #
b1100 3
b111 7
b11 9
10
#2525001
00
#2530001
b110 :
b110 5
b1110 #
b1110 3
b0 7
b100 9
10
#2535001
00
#2540001
b111 :
b1111 #
b1111 3
b1 7
b110 9
10
#2545001
00
#2550001
b0 :
b0 #
b0 3
b10 7
b111 9
10
#2555001
00
#2560001
b1 :
b1 #
b1 3
b11 7
b0 9
10
#2565001
00
#2570001
b10 :
b1010 #
b1010 3
b100 7
b1 9
10
#2575001
00
#2580001
b11 :
b1011 #
b1011 3
b101 7
b10 9
10
#2585001
00
#2590001
b100 :
b1100 #
b1100 3
b110 7
b11 9
10
#2595001
00
#2600001
b101 :
b1101 #
b1101 3
b111 7
b100 9
10
#2605001
00
#2610001
b111 :
b111 5
b1111 #
b1111 3
b0 7
b101 9
10
#2615001
00
#2620001
b0 :
b0 #
b0 3
b1 7
b111 9
10
#2625001
00
#2630001
b1 :
b1 #
b1 3
b10 7
b0 9
10
#2635001
00
#2640001
b10 :
b10 #
b10 3
b11 7
b1 9
10
#2645001
00
#2650001
b11 :
b1011 #
b1011 3
b100 7
b10 9
10
#2655001
00
#2660001
b100 :
b1100 #
b1100 3
b101 7
b11 9
10
#2665001
00
#2670001
b101 :
b1101 #
b1101 3
b110 7
b100 9
10
#2675001
00
#2680001
b110 :
b1110 #
b1110 3
b111 7
b101 9
10
#2685001
00
#2690001
b0 :
0<
0"
0+
0!
0,
0-
0*
0.
0/
b110 9
10
#2695001
00
#2700001
0(
1'
0%
1$
b0 9
0;
10
