ej1/adder.vcd
$date
	Wed May 12 17:06:08 2021
$end
$version
	Icarus Verilog
$end
$timescale
	1ps
$end
$scope module top $end
$var wire 1 ! \$1 $end
$var wire 1 " \$11 $end
$var wire 1 # \$13 $end
$var wire 3 $ \$15 [2:0] $end
$var wire 1 % \$18 $end
$var wire 1 & \$20 $end
$var wire 1 ' \$22 $end
$var wire 1 ( \$24 $end
$var wire 1 ) \$26 $end
$var wire 1 * \$28 $end
$var wire 1 + \$3 $end
$var wire 1 , \$5 $end
$var wire 1 - \$7 $end
$var wire 1 . \$9 $end
$var wire 2 / a__data [1:0] $end
$var wire 1 0 a__valid $end
$var wire 1 1 b__valid $end
$var wire 1 2 clk $end
$var wire 1 3 r__ready $end
$var wire 1 4 rst $end
$var wire 3 5 \$16 [2:0] $end
$var reg 1 6 \$verilog_initial_trigger $end
$var reg 1 7 a__ready $end
$var reg 2 8 b__data [1:0] $end
$var reg 1 9 b__ready $end
$var reg 2 : r__data [1:0] $end
$var reg 2 ; \r__data$next [1:0] $end
$var reg 1 < r__valid $end
$var reg 1 = \r__valid$next $end
$upscope $end
$enddefinitions $end
#0
$dumpvars
0=
0<
b0 ;
b0 :
19
b1 8
17
06
bx 5
14
z3
12
z1
z0
bz /
x.
x-
x,
x+
1*
0)
1(
1'
0&
1%
bx $
x#
x"
0!
$end
#5000
02
#10000
1.
1+
04
10
b111 $
b111 5
b10 /
13
12
#15000
02
#20000
b0 $
b0 5
b11 /
12
#25000
02
#30000
b10 $
b10 5
b1 /
12
#35000
02
#40000
12
#45000
02
#50000
b0 $
b0 5
b11 /
12
#55000
02
#60000
b1 $
b1 5
b0 /
12
#65000
02
#70000
b10 $
b10 5
b1 /
12
#75000
02
#80000
12
#85000
02
#90000
b111 $
b111 5
b10 /
12
#95000
02
#100000
b0 $
b0 5
b11 /
12
#105000
02
#110000
b1 $
b1 5
b0 /
12
#115000
02
#120000
b111 $
b111 5
b10 /
12
#125000
02
#130000
b10 $
b10 5
b1 /
12
#135000
02
#140000
12
#145000
02
#150000
b111 $
b111 5
b10 /
12
#155000
02
#160000
b10 $
b10 5
b1 /
12
#165000
02
#170000
b1 $
b1 5
b0 /
12
#175000
02
#180000
b0 $
b0 5
b11 /
12
#185000
02
#190000
b10 $
b10 5
b1 /
12
#195000
02
#200000
12
#205000
02
#210000
b0 $
b0 5
b11 /
12
#215000
02
#220000
b111 $
b111 5
b10 /
12
#225000
02
#230000
12
#235000
02
#240000
b10 $
b10 5
b1 /
12
#245000
02
#250000
b111 $
b111 5
b10 /
12
#255000
02
#260000
12
#265000
02
#270000
12
#275000
02
#280000
b10 $
b10 5
b1 /
12
#285000
02
#290000
b1 $
b1 5
b0 /
12
#295000
02
#300000
b111 $
b111 5
b10 /
12
#305000
02
#310000
b10 $
b10 5
b1 /
12
#315000
02
#320000
b1 $
b1 5
b0 /
12
#325000
02
#330000
12
#335000
02
#340000
b0 $
b0 5
b11 /
12
#345000
02
#350000
b10 $
b10 5
b1 /
12
#355000
02
#360000
b1 $
b1 5
b0 /
12
#365000
02
#370000
b10 $
b10 5
b1 /
12
#375000
02
#380000
12
#385000
02
#390000
b0 $
b0 5
b11 /
12
#395000
02
#400000
12
#405000
02
#410000
b111 $
b111 5
b10 /
12
#415000
02
#420000
12
#425000
02
#430000
b10 $
b10 5
b1 /
12
#435000
02
#440000
12
#445000
02
#450000
b111 $
b111 5
b10 /
12
#455000
02
#460000
b0 $
b0 5
b11 /
12
#465000
02
#470000
b111 $
b111 5
b10 /
12
#475000
02
#480000
12
#485000
02
#490000
b0 $
b0 5
b11 /
12
#495000
02
#500000
12
#505000
02
#510000
b10 $
b10 5
b1 /
12
#515000
02
#520000
b0 $
b0 5
b11 /
12
#525000
02
#530000
b111 $
b111 5
b10 /
12
#535000
02
#540000
b1 $
b1 5
b0 /
12
#545000
02
#550000
b0 $
b0 5
b11 /
12
#555000
02
#560000
12
#565000
02
#570000
b1 $
b1 5
b0 /
12
#575000
02
#580000
12
#585000
02
#590000
b111 $
b111 5
b10 /
12
#595000
02
#600000
b10 $
b10 5
b1 /
12
#605000
02
#610000
12
#615000
02
#620000
b111 $
b111 5
b10 /
12
#625000
02
#630000
12
#635000
02
#640000
b1 $
b1 5
b0 /
12
#645000
02
#650000
b10 $
b10 5
b1 /
12
#655000
02
#660000
b1 $
b1 5
b0 /
12
#665000
02
#670000
b111 $
b111 5
b10 /
12
#675000
02
#680000
12
#685000
02
#690000
12
#695000
02
#700000
b10 $
b10 5
b1 /
12
#705000
02
#710000
b0 $
b0 5
b11 /
12
#715000
02
#720000
b1 $
b1 5
b0 /
12
#725000
02
#730000
b0 $
b0 5
b11 /
12
#735000
02
#740000
b1 $
b1 5
b0 /
12
#745000
02
#750000
b0 $
b0 5
b11 /
12
#755000
02
#760000
b1 $
b1 5
b0 /
12
#765000
02
#770000
b10 $
b10 5
b1 /
12
#775000
02
#780000
12
#785000
02
#790000
b111 $
b111 5
b10 /
12
#795000
02
#800000
b10 $
b10 5
b1 /
12
#805000
02
#810000
b111 $
b111 5
b10 /
12
#815000
02
#820000
b0 $
b0 5
b11 /
12
#825000
02
#830000
b1 $
b1 5
b0 /
12
#835000
02
#840000
b111 $
b111 5
b10 /
12
#845000
02
#850000
12
#855000
02
#860000
b0 $
b0 5
b11 /
12
#865000
02
#870000
b10 $
b10 5
b1 /
12
#875000
02
#880000
b111 $
b111 5
b10 /
12
#885000
02
#890000
b10 $
b10 5
b1 /
12
#895000
02
#900000
b0 $
b0 5
b11 /
12
#905000
02
#910000
b111 $
b111 5
b10 /
12
#915000
02
#920000
b10 $
b10 5
b1 /
12
#925000
02
#930000
12
#935000
02
#940000
12
#945000
02
#950000
b1 $
b1 5
b0 /
12
#955000
02
#960000
b10 $
b10 5
b1 /
12
#965000
02
#970000
12
#975000
02
#980000
b1 $
b1 5
b0 /
12
#985000
02
#990000
b10 $
b10 5
b1 /
12
#995000
02
#1000000
b0 $
b0 5
b11 /
12
#1005000
02
#1010000
0#
0-
0.
0+
00
12
