ej1/incrementador.vcd
$date
	Thu May 13 12:15:12 2021
$end
$version
	Icarus Verilog
$end
$timescale
	1ps
$end
$scope module top $end
$var wire 1 ! \$1 $end
$var wire 1 " \$10 $end
$var wire 1 # \$12 $end
$var wire 1 $ \$14 $end
$var wire 1 % \$3 $end
$var wire 1 & \$5 $end
$var wire 6 ' \$7 [5:0] $end
$var wire 5 ( a__data [4:0] $end
$var wire 1 ) a__valid $end
$var wire 1 * clk $end
$var wire 1 + r__ready $end
$var wire 1 , rst $end
$var wire 6 - \$8 [5:0] $end
$var reg 1 . a__ready $end
$var reg 5 / r__data [4:0] $end
$var reg 5 0 \r__data$next [4:0] $end
$var reg 1 1 r__valid $end
$var reg 1 2 \r__valid$next $end
$upscope $end
$enddefinitions $end
#0
$dumpvars
02
01
b0 0
b0 /
1.
bx -
1,
z+
1*
z)
bz (
bx '
x&
x%
1$
0#
1"
0!
$end
#5000
0*
#10000
b1100 0
12
1%
1&
0,
1)
b1100 '
b1100 -
b1011 (
1+
1*
#15000
0*
#20000
b10 0
b10 '
b10 -
b1 (
12
1!
1#
0"
b1100 /
11
1*
#25000
0*
#30000
b10011 0
b10011 '
b10011 -
b10010 (
b10 /
1*
#35000
0*
#40000
b11101 0
b11101 '
b11101 -
b11100 (
b10011 /
1*
#45000
0*
#50000
b10010 0
b10010 '
b10010 -
b10001 (
b11101 /
1*
#55000
0*
#60000
b100 0
b100 '
b100 -
b11 (
b10010 /
1*
#65000
0*
#70000
b10101 0
b10101 '
b10101 -
b10100 (
b100 /
1*
#75000
0*
#80000
b10000 0
b10000 '
b10000 -
b1111 (
b10101 /
1*
#85000
0*
#90000
b11101 0
b11101 '
b11101 -
b11100 (
b10000 /
1*
#95000
0*
#100000
b10100 0
b10100 '
b10100 -
b10011 (
b11101 /
1*
#105000
0*
#110000
b1001 0
b1001 '
b1001 -
b1000 (
b10100 /
1*
#115000
0*
#120000
b11111 0
b11111 '
b11111 -
b11110 (
b1001 /
1*
#125000
0*
#130000
b11100 0
b11100 '
b11100 -
b11011 (
b11111 /
1*
#135000
0*
#140000
b10110 0
b10110 '
b10110 -
b10101 (
b11100 /
1*
#145000
0*
#150000
b1000 0
b1000 '
b1000 -
b111 (
b10110 /
1*
#155000
0*
#160000
b1011 0
b1011 '
b1011 -
b1010 (
b1000 /
1*
#165000
0*
#170000
b0 0
b100000 '
b100000 -
b11111 (
b1011 /
1*
#175000
0*
#180000
b11011 0
b11011 '
b11011 -
b11010 (
b0 /
1*
#185000
0*
#190000
b11011 /
1*
#195000
0*
#200000
b11010 0
b11010 '
b11010 -
b11001 (
1*
#205000
0*
#210000
b1101 0
b1101 '
b1101 -
b1100 (
b11010 /
1*
#215000
0*
#220000
b1100 0
b1100 '
b1100 -
b1011 (
b1101 /
1*
#225000
0*
#230000
b10001 0
b10001 '
b10001 -
b10000 (
b1100 /
1*
#235000
0*
#240000
b1100 0
b1100 '
b1100 -
b1011 (
b10001 /
1*
#245000
0*
#250000
b1011 0
b1011 '
b1011 -
b1010 (
b1100 /
1*
#255000
0*
#260000
b0 0
b100000 '
b100000 -
b11111 (
b1011 /
1*
#265000
0*
#270000
b1110 0
b1110 '
b1110 -
b1101 (
b0 /
1*
#275000
0*
#280000
b11001 0
b11001 '
b11001 -
b11000 (
b1110 /
1*
#285000
0*
#290000
b10010 0
b10010 '
b10010 -
b10001 (
b11001 /
1*
#295000
0*
#300000
b1100 0
b1100 '
b1100 -
b1011 (
b10010 /
1*
#305000
0*
#310000
b1 0
b1 '
b1 -
b0 (
b1100 /
1*
#315000
0*
#320000
b10000 0
b10000 '
b10000 -
b1111 (
b1 /
1*
#325000
0*
#330000
b11111 0
b11111 '
b11111 -
b11110 (
b10000 /
1*
#335000
0*
#340000
b1000 0
b1000 '
b1000 -
b111 (
b11111 /
1*
#345000
0*
#350000
b11001 0
b11001 '
b11001 -
b11000 (
b1000 /
1*
#355000
0*
#360000
b11010 0
b11010 '
b11010 -
b11001 (
b11001 /
1*
#365000
0*
#370000
b1111 0
b1111 '
b1111 -
b1110 (
b11010 /
1*
#375000
0*
#380000
b1110 0
b1110 '
b1110 -
b1101 (
b1111 /
1*
#385000
0*
#390000
b10111 0
b10111 '
b10111 -
b10110 (
b1110 /
1*
#395000
0*
#400000
b1100 0
b1100 '
b1100 -
b1011 (
b10111 /
1*
#405000
0*
#410000
b10000 0
b10000 '
b10000 -
b1111 (
b1100 /
1*
#415000
0*
#420000
b1111 0
b1111 '
b1111 -
b1110 (
b10000 /
1*
#425000
0*
#430000
b110 0
b110 '
b110 -
b101 (
b1111 /
1*
#435000
0*
#440000
b1111 0
b1111 '
b1111 -
b1110 (
b110 /
1*
#445000
0*
#450000
b1110 0
b1110 '
b1110 -
b1101 (
b1111 /
1*
#455000
0*
#460000
b11001 0
b11001 '
b11001 -
b11000 (
b1110 /
1*
#465000
0*
#470000
b10010 0
b10010 '
b10010 -
b10001 (
b11001 /
1*
#475000
0*
#480000
b110 0
b110 '
b110 -
b101 (
b10010 /
1*
#485000
0*
#490000
b101 0
b101 '
b101 -
b100 (
b110 /
1*
#495000
0*
#500000
b11001 0
b11001 '
b11001 -
b11000 (
b101 /
1*
#505000
0*
#510000
b10110 0
b10110 '
b10110 -
b10101 (
b11001 /
1*
#515000
0*
#520000
b1011 0
b1011 '
b1011 -
b1010 (
b10110 /
1*
#525000
0*
#530000
b11011 0
b11011 '
b11011 -
b11010 (
b1011 /
1*
#535000
0*
#540000
b0 0
b100000 '
b100000 -
b11111 (
b11011 /
1*
#545000
0*
#550000
b11101 0
b11101 '
b11101 -
b11100 (
b0 /
1*
#555000
0*
#560000
b1110 0
b1110 '
b1110 -
b1101 (
b11101 /
1*
#565000
0*
#570000
b10011 0
b10011 '
b10011 -
b10010 (
b1110 /
1*
#575000
0*
#580000
b101 0
b101 '
b101 -
b100 (
b10011 /
1*
#585000
0*
#590000
b1101 0
b1101 '
b1101 -
b1100 (
b101 /
1*
#595000
0*
#600000
b10001 0
b10001 '
b10001 -
b10000 (
b1101 /
1*
#605000
0*
#610000
b11001 0
b11001 '
b11001 -
b11000 (
b10001 /
1*
#615000
0*
#620000
b11010 0
b11010 '
b11010 -
b11001 (
b11001 /
1*
#625000
0*
#630000
b11101 0
b11101 '
b11101 -
b11100 (
b11010 /
1*
#635000
0*
#640000
b11010 0
b11010 '
b11010 -
b11001 (
b11101 /
1*
#645000
0*
#650000
b10101 0
b10101 '
b10101 -
b10100 (
b11010 /
1*
#655000
0*
#660000
b1011 0
b1011 '
b1011 -
b1010 (
b10101 /
1*
#665000
0*
#670000
b1101 0
b1101 '
b1101 -
b1100 (
b1011 /
1*
#675000
0*
#680000
b101 0
b101 '
b101 -
b100 (
b1101 /
1*
#685000
0*
#690000
b1010 0
b1010 '
b1010 -
b1001 (
b101 /
1*
#695000
0*
#700000
b1111 0
b1111 '
b1111 -
b1110 (
b1010 /
1*
#705000
0*
#710000
b10001 0
b10001 '
b10001 -
b10000 (
b1111 /
1*
#715000
0*
#720000
b10111 0
b10111 '
b10111 -
b10110 (
b10001 /
1*
#725000
0*
#730000
b10 0
b10 '
b10 -
b1 (
b10111 /
1*
#735000
0*
#740000
b110 0
b110 '
b110 -
b101 (
b10 /
1*
#745000
0*
#750000
b10111 0
b10111 '
b10111 -
b10110 (
b110 /
1*
#755000
0*
#760000
b1010 0
b1010 '
b1010 -
b1001 (
b10111 /
1*
#765000
0*
#770000
b10000 0
b10000 '
b10000 -
b1111 (
b1010 /
1*
#775000
0*
#780000
b11111 0
b11111 '
b11111 -
b11110 (
b10000 /
1*
#785000
0*
#790000
b11011 0
b11011 '
b11011 -
b11010 (
b11111 /
1*
#795000
0*
#800000
b1 0
b1 '
b1 -
b0 (
b11011 /
1*
#805000
0*
#810000
b10111 0
b10111 '
b10111 -
b10110 (
b1 /
1*
#815000
0*
#820000
b11001 0
b11001 '
b11001 -
b11000 (
b10111 /
1*
#825000
0*
#830000
b11000 0
b11000 '
b11000 -
b10111 (
b11001 /
1*
#835000
0*
#840000
b11 0
b11 '
b11 -
b10 (
b11000 /
1*
#845000
0*
#850000
b10110 0
b10110 '
b10110 -
b10101 (
b11 /
1*
#855000
0*
#860000
b10101 0
b10101 '
b10101 -
b10100 (
b10110 /
1*
#865000
0*
#870000
b11100 0
b11100 '
b11100 -
b11011 (
b10101 /
1*
#875000
0*
#880000
b10000 0
b10000 '
b10000 -
b1111 (
b11100 /
1*
#885000
0*
#890000
b1000 0
b1000 '
b1000 -
b111 (
b10000 /
1*
#895000
0*
#900000
b11111 0
b11111 '
b11111 -
b11110 (
b1000 /
1*
#905000
0*
#910000
b11 0
b11 '
b11 -
b10 (
b11111 /
1*
#915000
0*
#920000
b10001 0
b10001 '
b10001 -
b10000 (
b11 /
1*
#925000
0*
#930000
b1111 0
b1111 '
b1111 -
b1110 (
b10001 /
1*
#935000
0*
#940000
b11100 0
b11100 '
b11100 -
b11011 (
b1111 /
1*
#945000
0*
#950000
b11010 0
b11010 '
b11010 -
b11001 (
b11100 /
1*
#955000
0*
#960000
b11010 /
1*
#965000
0*
#970000
b11110 0
b11110 '
b11110 -
b11101 (
1*
#975000
0*
#980000
b1101 0
b1101 '
b1101 -
b1100 (
b11110 /
1*
#985000
0*
#990000
b11111 0
b11111 '
b11111 -
b11110 (
b1101 /
1*
#995000
0*
#1000000
b0 0
b100000 '
b100000 -
b11111 (
b11111 /
1*
#1005000
0*
#1010000
02
0%
0&
0)
b0 /
1*
#1015000
0*
#1020000
0!
0#
1"
01
1*
